# 3ds Max Wavefront OBJ Exporter v0.97b - (c)2007 guruware
# File Created: 15.04.2018 22:09:24

mtllib Books1Low.mtl

#
# object Book1Low
#

v  0.0726 -0.0000 0.0798
v  0.0726 -0.0000 -0.0702
v  0.1226 -0.0000 -0.0702
v  0.1226 -0.0000 0.0798
v  0.0726 0.1900 0.0798
v  0.1226 0.1900 0.0798
v  0.1226 0.1900 -0.0702
v  0.0726 0.1900 -0.0702
# 8 vertices

vn 0.0000 -1.0000 -0.0000
vn 0.0000 1.0000 -0.0000
vn 0.0000 0.0000 1.0000
vn 1.0000 0.0000 -0.0000
vn 0.0000 0.0000 -1.0000
vn -1.0000 0.0000 -0.0000
# 6 vertex normals

vt 0.7360 0.2960 0.0000
vt 0.8223 0.2960 0.0000
vt 0.8223 0.3247 0.0000
vt 0.7360 0.3247 0.0000
vt 0.7360 0.4628 0.0000
vt 0.7360 0.4341 0.0000
vt 0.8223 0.4341 0.0000
vt 0.8223 0.4628 0.0000
vt 0.7073 0.3247 0.0000
vt 0.7073 0.4341 0.0000
vt 0.8511 0.3247 0.0000
vt 0.8511 0.4341 0.0000
vt 0.8223 0.5721 0.0000
vt 0.7360 0.5721 0.0000
# 14 texture coords

g Book1Low
usemtl 01___Default
s 2
f 1/1/1 2/2/1 3/3/1 4/4/1 
s 4
f 5/5/2 6/6/2 7/7/2 8/8/2 
s 8
f 1/9/3 4/4/3 6/6/3 5/10/3 
s 16
f 4/4/4 3/3/4 7/7/4 6/6/4 
s 32
f 3/3/5 2/11/5 8/12/5 7/7/5 
s 64
f 2/13/6 1/14/6 5/5/6 8/8/6 
# 6 polygons

