# 3ds Max Wavefront OBJ Exporter v0.97b - (c)2007 guruware
# File Created: 19.04.2018 02:31:10

newmtl wire_115115115
	Ns 32
	d 1
	Tr 0
	Tf 1 1 1
	illum 2
	Ka 0.4510 0.4510 0.4510
	Kd 0.4510 0.4510 0.4510
	Ks 0.3500 0.3500 0.3500
