# 3ds Max Wavefront OBJ Exporter v0.97b - (c)2007 guruware
# File Created: 22.04.2018 00:08:59

newmtl wire_214228153
	Ns 32
	d 1
	Tr 0
	Tf 1 1 1
	illum 2
	Ka 0.8392 0.8941 0.6000
	Kd 0.8392 0.8941 0.6000
	Ks 0.3500 0.3500 0.3500
