# 3ds Max Wavefront OBJ Exporter v0.97b - (c)2007 guruware
# File Created: 19.04.2018 03:29:09

mtllib Wires.mtl

#
# object Cylinder001
#

v  -7.2351 198.0374 5.7451
v  -6.9990 68.6929 5.7451
v  -7.0676 68.6449 6.2203
v  -7.3189 198.0374 6.2203
v  -6.9938 198.0374 5.3273
v  -6.8013 68.8313 5.3273
v  -6.6242 198.0374 5.0173
v  -6.4986 69.0433 5.0171
v  -6.1708 198.0374 4.8521
v  -6.1272 69.3034 4.8521
v  -5.6884 198.0374 4.8521
v  -5.7320 69.5801 4.8521
v  -5.2350 198.0374 5.0173
v  -5.3606 69.8402 5.0171
v  -4.8654 198.0374 5.3273
v  -5.0578 70.0522 5.3273
v  -4.6241 198.0374 5.7451
v  -4.8602 70.1905 5.7451
v  -4.5403 198.0374 6.2203
v  -4.7915 70.2386 6.2203
v  -4.6241 198.0374 6.6955
v  -4.8602 70.1905 6.6954
v  -4.8654 198.0374 7.1133
v  -5.0578 70.0522 7.1133
v  -5.2350 198.0374 7.4234
v  -5.3606 69.8402 7.4234
v  -5.6884 198.0374 7.5885
v  -5.7320 69.5801 7.5885
v  -6.1708 198.0374 7.5885
v  -6.1272 69.3034 7.5885
v  -6.6242 198.0374 7.4234
v  -6.4986 69.0433 7.4234
v  -6.9938 198.0374 7.1133
v  -6.8013 68.8313 7.1133
v  -7.2351 198.0374 6.6955
v  -6.9990 68.6929 6.6954
v  -2.4340 61.6797 5.7451
v  -2.2492 61.8348 5.3273
v  -2.2492 61.8348 7.1133
v  -2.4340 61.6797 6.6954
v  -5.7374 64.4845 5.7451
v  -5.8038 64.4336 6.2203
v  -5.5462 64.6313 5.3273
v  -5.2532 64.8561 5.0171
v  -4.8939 65.1318 4.8521
v  -4.5115 65.4253 4.8521
v  -4.1521 65.7010 5.0171
v  -3.8591 65.9258 5.3273
v  -3.6679 66.0725 5.7451
v  -3.6015 66.1235 6.2203
v  -3.6679 66.0725 6.6954
v  -3.8591 65.9258 7.1133
v  -4.1521 65.7010 7.4234
v  -4.5115 65.4253 7.5884
v  -4.8939 65.1318 7.5884
v  -5.2532 64.8561 7.4234
v  -5.5462 64.6313 7.1133
v  -5.7374 64.4845 6.6954
v  -2.4981 61.6258 6.2203
v  -1.9660 62.0724 5.0171
v  -1.6187 62.3638 4.8521
v  -1.2491 62.6739 4.8521
v  -0.9018 62.9654 5.0171
v  -0.6187 63.2029 5.3273
v  -0.4338 63.3580 5.7451
v  -0.3697 63.4119 6.2203
v  -0.4338 63.3580 6.6954
v  -0.6187 63.2029 7.1133
v  -0.9018 62.9654 7.4234
v  -1.2491 62.6739 7.5884
v  -1.6187 62.3638 7.5884
v  -1.9660 62.0724 7.4234
v  -23.6621 197.8998 16.9371
v  -23.6621 142.6977 16.9371
v  -23.7459 142.6977 17.4123
v  -23.7459 197.8998 17.4123
v  -23.4209 197.8998 16.5192
v  -23.4209 142.6977 16.5192
v  -23.0513 197.8998 16.2092
v  -23.0513 142.6977 16.2092
v  -22.5979 197.8998 16.0441
v  -22.5979 142.6977 16.0441
v  -22.1154 197.8998 16.0441
v  -22.1154 142.6977 16.0441
v  -21.6620 197.8998 16.2092
v  -21.6620 142.6977 16.2092
v  -21.2924 197.8998 16.5192
v  -21.2924 142.6977 16.5192
v  -21.0512 197.8998 16.9371
v  -21.0512 142.6977 16.9371
v  -20.9674 197.8998 17.4123
v  -20.9674 142.6977 17.4123
v  -21.0512 197.8998 17.8874
v  -21.0512 142.6977 17.8874
v  -21.2924 197.8998 18.3053
v  -21.2924 142.6977 18.3053
v  -21.6620 197.8998 18.6154
v  -21.6620 142.6977 18.6154
v  -22.1154 197.8998 18.7804
v  -22.1154 142.6977 18.7804
v  -22.5979 197.8998 18.7804
v  -22.5979 142.6977 18.7804
v  -23.0513 197.8998 18.6154
v  -23.0513 142.6977 18.6154
v  -23.4209 197.8998 18.3053
v  -23.4209 142.6977 18.3053
v  -23.6621 197.8998 17.8874
v  -23.6621 142.6977 17.8874
v  31.3020 197.8382 -1.9949
v  30.3901 181.2803 -1.9950
v  30.2963 181.3050 -1.5199
v  31.2060 197.8211 -1.5199
v  31.5787 197.8874 -2.4128
v  30.6601 181.2091 -2.4128
v  32.0025 197.9628 -2.7230
v  31.0738 181.1001 -2.7230
v  32.5225 198.0553 -2.8881
v  31.5813 180.9664 -2.8881
v  33.0758 198.1538 -2.8881
v  32.1213 180.8240 -2.8881
v  33.5957 198.2463 -2.7230
v  32.6288 180.6903 -2.7230
v  34.0196 198.3217 -2.4128
v  33.0425 180.5813 -2.4128
v  34.2962 198.3709 -1.9949
v  33.3125 180.5101 -1.9950
v  34.3923 198.3880 -1.5199
v  33.4063 180.4854 -1.5199
v  34.2962 198.3709 -1.0447
v  33.3125 180.5101 -1.0447
v  34.0196 198.3217 -0.6269
v  33.0425 180.5813 -0.6269
v  33.5957 198.2463 -0.3167
v  32.6288 180.6903 -0.3167
v  33.0758 198.1538 -0.1517
v  32.1213 180.8240 -0.1517
v  32.5225 198.0553 -0.1517
v  31.5813 180.9663 -0.1517
v  32.0025 197.9628 -0.3167
v  31.0738 181.1001 -0.3167
v  31.5787 197.8874 -0.6269
v  30.6601 181.2091 -0.6269
v  31.3020 197.8382 -1.0447
v  30.3901 181.2803 -1.0447
v  20.2096 162.8698 -1.9950
v  20.1415 162.9301 -1.5199
v  20.4056 162.6960 -2.4128
v  20.7059 162.4297 -2.7230
v  21.0743 162.1031 -2.8881
v  21.4663 161.7556 -2.8881
v  21.8347 161.4290 -2.7230
v  22.1350 161.1627 -2.4128
v  22.3310 160.9889 -1.9950
v  22.3991 160.9286 -1.5199
v  22.3310 160.9889 -1.0447
v  22.1350 161.1627 -0.6269
v  21.8347 161.4290 -0.3168
v  21.4663 161.7556 -0.1517
v  21.0743 162.1031 -0.1517
v  20.7059 162.4297 -0.3168
v  20.4056 162.6960 -0.6269
v  20.2096 162.8698 -1.0447
v  3.3012 148.3761 -1.9950
v  3.2758 148.4570 -1.5199
v  3.3743 148.1430 -2.4128
v  3.4862 147.7860 -2.7230
v  3.6236 147.3480 -2.8881
v  3.7697 146.8820 -2.8881
v  3.9071 146.4440 -2.7230
v  4.0190 146.0870 -2.4128
v  4.0921 145.8539 -1.9950
v  4.1175 145.7730 -1.5199
v  4.0921 145.8539 -1.0447
v  4.0190 146.0870 -0.6269
v  3.9071 146.4440 -0.3168
v  3.7697 146.8820 -0.1517
v  3.6236 147.3480 -0.1517
v  3.4862 147.7860 -0.3168
v  3.3743 148.1430 -0.6269
v  3.3012 148.3761 -1.0447
v  -6.4072 145.6945 -1.9950
v  -6.4080 145.7757 -1.5199
v  -6.4047 145.4610 -2.4128
v  -6.4009 145.1031 -2.7230
v  -6.3962 144.6641 -2.8881
v  -6.3912 144.1969 -2.8881
v  -6.3865 143.7579 -2.7230
v  -6.3827 143.4000 -2.4128
v  -6.3802 143.1664 -1.9950
v  -6.3793 143.0853 -1.5199
v  -6.3802 143.1664 -1.0447
v  -6.3827 143.4000 -0.6269
v  -6.3865 143.7579 -0.3168
v  -6.3912 144.1969 -0.1517
v  -6.3962 144.6641 -0.1517
v  -6.4009 145.1031 -0.3168
v  -6.4047 145.4610 -0.6269
v  -6.4072 145.6945 -1.0447
v  -16.9943 152.5766 -1.5199
v  -17.0180 152.4952 -1.9950
v  -24.6606 164.4783 -1.9950
v  -24.5939 164.5397 -1.5199
v  -17.0861 152.2611 -2.4128
v  -24.8529 164.3015 -2.4128
v  -17.1904 151.9024 -2.7230
v  -25.1475 164.0307 -2.7231
v  -17.3183 151.4624 -2.8881
v  -25.5088 163.6984 -2.8881
v  -17.4545 150.9941 -2.8881
v  -25.8933 163.3447 -2.8881
v  -17.5825 150.5540 -2.7230
v  -26.2547 163.0125 -2.7231
v  -17.6868 150.1953 -2.4128
v  -26.5492 162.7416 -2.4128
v  -17.7549 149.9612 -1.9950
v  -26.7415 162.5648 -1.9950
v  -17.7785 149.8799 -1.5199
v  -26.8083 162.5034 -1.5199
v  -17.7549 149.9612 -1.0447
v  -26.7415 162.5648 -1.0448
v  -17.6868 150.1953 -0.6269
v  -26.5492 162.7416 -0.6269
v  -17.5825 150.5540 -0.3168
v  -26.2547 163.0125 -0.3168
v  -17.4545 150.9941 -0.1517
v  -25.8933 163.3447 -0.1517
v  -17.3183 151.4624 -0.1517
v  -25.5088 163.6984 -0.1517
v  -17.1904 151.9024 -0.3168
v  -25.1475 164.0307 -0.3168
v  -17.0861 152.2611 -0.6269
v  -24.8529 164.3015 -0.6269
v  -17.0180 152.4952 -1.0447
v  -24.6606 164.4783 -1.0448
v  -30.5491 180.7038 -1.9950
v  -30.4559 180.7300 -1.5199
v  -30.8176 180.6285 -2.4128
v  -31.2289 180.5130 -2.7231
v  -31.7334 180.3714 -2.8881
v  -32.2703 180.2207 -2.8881
v  -32.7748 180.0791 -2.7231
v  -33.1862 179.9637 -2.4128
v  -33.4546 179.8883 -1.9950
v  -33.5478 179.8621 -1.5199
v  -33.4546 179.8883 -1.0448
v  -33.1862 179.9637 -0.6269
v  -32.7748 180.0791 -0.3168
v  -32.2703 180.2207 -0.1518
v  -31.7334 180.3714 -0.1518
v  -31.2289 180.5130 -0.3168
v  -30.8176 180.6285 -0.6269
v  -30.5491 180.7038 -1.0448
v  -31.8146 197.2448 -1.9950
v  -31.7181 197.2292 -1.5199
v  -32.0922 197.2897 -2.4128
v  -32.5176 197.3585 -2.7231
v  -33.0394 197.4429 -2.8881
v  -33.5948 197.5327 -2.8881
v  -34.1166 197.6171 -2.7231
v  -34.5420 197.6859 -2.4128
v  -34.8196 197.7308 -1.9950
v  -34.9161 197.7464 -1.5199
v  -34.8196 197.7308 -1.0448
v  -34.5420 197.6859 -0.6269
v  -34.1166 197.6171 -0.3168
v  -33.5948 197.5327 -0.1518
v  -33.0394 197.4429 -0.1518
v  -32.5176 197.3585 -0.3168
v  -32.0922 197.2897 -0.6269
v  -31.8146 197.2448 -1.0448
v  -23.0809 197.9377 -15.3554
v  -23.0809 76.0017 -15.3554
v  -23.1647 76.0017 -14.8804
v  -23.1647 197.9377 -14.8804
v  -22.8397 197.9377 -15.7733
v  -22.8397 76.0017 -15.7733
v  -22.4701 197.9377 -16.0835
v  -22.4701 76.0017 -16.0835
v  -22.0167 197.9377 -16.2484
v  -22.0167 76.0017 -16.2484
v  -21.5342 197.9377 -16.2484
v  -21.5342 76.0017 -16.2484
v  -21.0808 197.9377 -16.0835
v  -21.0808 76.0017 -16.0835
v  -20.7112 197.9377 -15.7733
v  -20.7112 76.0017 -15.7733
v  -20.4699 197.9377 -15.3554
v  -20.4699 76.0017 -15.3554
v  -20.3862 197.9377 -14.8804
v  -20.3862 76.0017 -14.8804
v  -20.4699 197.9377 -14.4051
v  -20.4699 76.0017 -14.4051
v  -20.7112 197.9377 -13.9872
v  -20.7112 76.0017 -13.9874
v  -21.0808 197.9377 -13.6771
v  -21.0808 76.0017 -13.6771
v  -21.5342 197.9377 -13.5121
v  -21.5342 76.0017 -13.5121
v  -22.0167 197.9377 -13.5121
v  -22.0167 76.0017 -13.5121
v  -22.4701 197.9377 -13.6771
v  -22.4701 76.0017 -13.6771
v  -22.8397 197.9377 -13.9872
v  -22.8397 76.0017 -13.9874
v  -23.0809 197.9377 -14.4051
v  -23.0809 76.0017 -14.4051
v  8.0939 197.8807 -10.7605
v  8.0939 124.9177 -10.7605
v  8.0101 124.9177 -10.2853
v  8.0101 197.8807 -10.2853
v  8.3351 197.8807 -11.1784
v  8.3351 124.9177 -11.1784
v  8.7047 197.8807 -11.4886
v  8.7047 124.9177 -11.4886
v  9.1581 197.8807 -11.6535
v  9.1581 124.9177 -11.6535
v  9.6406 197.8807 -11.6535
v  9.6406 124.9177 -11.6535
v  10.0940 197.8807 -11.4886
v  10.0940 124.9177 -11.4872
v  10.4636 197.8807 -11.1784
v  10.4636 124.9177 -11.1784
v  10.7049 197.8807 -10.7605
v  10.7049 124.9177 -10.7605
v  10.7887 197.8807 -10.2853
v  10.7887 124.9177 -10.2853
v  10.7049 197.8807 -9.8102
v  10.7049 124.9177 -9.8102
v  10.4636 197.8807 -9.3924
v  10.4636 124.9177 -9.3924
v  10.0940 197.8807 -9.0823
v  10.0940 124.9177 -9.0823
v  9.6406 197.8807 -8.9172
v  9.6406 124.9177 -8.9172
v  9.1581 197.8807 -8.9172
v  9.1581 124.9177 -8.9172
v  8.7047 197.8807 -9.0823
v  8.7047 124.9177 -9.0823
v  8.3351 197.8807 -9.3924
v  8.3351 124.9177 -9.3924
v  8.0939 197.8807 -9.8102
v  8.0939 124.9177 -9.8102
v  -22.0507 142.7231 17.1666
v  -22.0179 141.9350 17.1665
v  -22.0466 141.9350 17.3289
v  -22.0793 142.7231 17.3289
v  -21.9683 142.7231 17.0238
v  -21.9355 141.9352 17.0238
v  -21.8420 142.7231 16.9179
v  -21.8092 141.9353 16.9179
v  -21.6870 142.7231 16.8615
v  -21.6543 141.9356 16.8615
v  -21.5221 142.7231 16.8615
v  -21.4894 141.9359 16.8615
v  -21.3672 142.7231 16.9179
v  -21.3345 141.9361 16.9179
v  -21.2409 142.7231 17.0238
v  -21.2082 141.9364 17.0238
v  -21.1584 142.7231 17.1666
v  -21.1257 141.9365 17.1666
v  -21.1298 142.7231 17.3289
v  -21.0971 141.9366 17.3289
v  -21.1584 142.7231 17.4914
v  -21.1257 141.9365 17.4914
v  -21.2409 142.7231 17.6341
v  -21.2082 141.9364 17.6341
v  -21.3672 142.7231 17.7402
v  -21.3345 141.9361 17.7402
v  -21.5221 142.7231 17.7965
v  -21.4894 141.9359 17.7965
v  -21.6870 142.7231 17.7965
v  -21.6543 141.9356 17.7965
v  -21.8420 142.7231 17.7402
v  -21.8092 141.9353 17.7402
v  -21.9683 142.7231 17.6341
v  -21.9355 141.9352 17.6341
v  -22.0507 142.7231 17.4914
v  -22.0179 141.9350 17.4914
v  -21.9196 141.1469 17.1665
v  -21.9483 141.1467 17.3289
v  -21.8372 141.1471 17.0238
v  -21.7109 141.1476 16.9179
v  -21.5561 141.1481 16.8615
v  -21.3912 141.1487 16.8615
v  -21.2363 141.1493 16.9179
v  -21.1101 141.1497 17.0238
v  -21.0276 141.1500 17.1665
v  -20.9990 141.1501 17.3289
v  -21.0276 141.1500 17.4914
v  -21.1101 141.1497 17.6341
v  -21.2363 141.1493 17.7402
v  -21.3912 141.1487 17.7965
v  -21.5561 141.1481 17.7965
v  -21.7109 141.1476 17.7402
v  -21.8372 141.1471 17.6341
v  -21.9196 141.1469 17.4914
v  -21.7558 140.3589 17.1665
v  -21.7844 140.3588 17.3289
v  -21.6734 140.3595 17.0238
v  -21.5472 140.3601 16.9179
v  -21.3924 140.3609 16.8615
v  -21.2276 140.3618 16.8615
v  -21.0728 140.3626 16.9179
v  -20.9465 140.3633 17.0238
v  -20.8642 140.3637 17.1665
v  -20.8355 140.3639 17.3289
v  -20.8642 140.3637 17.4914
v  -20.9465 140.3633 17.6341
v  -21.0728 140.3626 17.7402
v  -21.2276 140.3618 17.7965
v  -21.3924 140.3609 17.7965
v  -21.5472 140.3601 17.7402
v  -21.6734 140.3595 17.6341
v  -21.7558 140.3589 17.4914
v  -21.5265 139.5714 17.1665
v  -21.5551 139.5712 17.3289
v  -21.4442 139.5721 17.0238
v  -21.3180 139.5730 16.9179
v  -21.1632 139.5741 16.8615
v  -20.9986 139.5752 16.8615
v  -20.8438 139.5763 16.9179
v  -20.7177 139.5772 17.0238
v  -20.6353 139.5779 17.1665
v  -20.6067 139.5780 17.3289
v  -20.6353 139.5779 17.4914
v  -20.7177 139.5772 17.6341
v  -20.8438 139.5763 17.7402
v  -20.9986 139.5752 17.7965
v  -21.1632 139.5741 17.7965
v  -21.3180 139.5730 17.7402
v  -21.4442 139.5721 17.6341
v  -21.5265 139.5714 17.4914
v  -21.2317 138.7844 17.1665
v  -21.2603 138.7841 17.3289
v  -21.1494 138.7851 17.0238
v  -21.0234 138.7862 16.9179
v  -20.8687 138.7876 16.8615
v  -20.7041 138.7891 16.8615
v  -20.5495 138.7905 16.9179
v  -20.4234 138.7916 17.0238
v  -20.3411 138.7924 17.1665
v  -20.3126 138.7926 17.3289
v  -20.3411 138.7924 17.4914
v  -20.4234 138.7916 17.6341
v  -20.5495 138.7905 17.7402
v  -20.7041 138.7891 17.7965
v  -20.8687 138.7876 17.7965
v  -21.0234 138.7862 17.7402
v  -21.1494 138.7851 17.6341
v  -21.2317 138.7844 17.4914
v  -22.8437 139.0491 18.5569
v  -22.8692 139.0537 18.6999
v  -22.9189 140.2858 18.3228
v  -22.8934 140.2831 18.1791
v  -22.7705 139.0453 18.4310
v  -22.8203 140.2807 18.0527
v  -22.6585 139.0428 18.3375
v  -22.7083 140.2791 17.9590
v  -22.5211 139.0416 18.2878
v  -22.5709 140.2784 17.9090
v  -22.4248 140.2789 17.9090
v  -22.3749 139.0423 18.2875
v  -22.2874 140.2802 17.9588
v  -22.2376 139.0446 18.3372
v  -22.1755 140.2825 18.0525
v  -22.1257 139.0480 18.4305
v  -22.1024 140.2852 18.1789
v  -22.0528 139.0526 18.5562
v  -22.0771 140.2881 18.3225
v  -22.0275 139.0573 18.6992
v  -22.1025 140.2910 18.4660
v  -22.0530 139.0620 18.8424
v  -22.1756 140.2932 18.5924
v  -22.1262 139.0658 18.9681
v  -22.2876 140.2948 18.6861
v  -22.2382 139.0683 19.0616
v  -22.4250 140.2955 18.7360
v  -22.3756 139.0694 19.1115
v  -22.5218 139.0688 19.1115
v  -22.5712 140.2952 18.7362
v  -22.6591 139.0665 19.0620
v  -22.7085 140.2937 18.6863
v  -22.7710 139.0630 18.9688
v  -22.8205 140.2915 18.5926
v  -22.8439 139.0585 18.8429
v  -22.8935 140.2888 18.4664
v  -21.7367 135.4108 20.9082
v  -21.7626 135.4207 21.0480
v  -22.4807 135.4229 21.1737
v  -22.5532 135.4133 21.0511
v  -22.5521 135.3931 20.7715
v  -22.5780 135.4030 20.9114
v  -22.6986 136.6100 19.9956
v  -22.6729 136.6019 19.8543
v  -22.7957 137.8277 19.2579
v  -22.7701 137.8212 19.1157
v  -22.9465 142.7589 18.1131
v  -22.9211 142.7596 17.9692
v  -22.9192 141.5206 17.9830
v  -22.9446 141.5217 18.1269
v  -22.4786 135.3848 20.6483
v  -22.5995 136.5950 19.7299
v  -22.6969 137.8159 18.9904
v  -22.8480 142.7603 17.8426
v  -22.8461 141.5199 17.8564
v  -22.3663 135.3793 20.5567
v  -22.4873 136.5905 19.6376
v  -22.5848 137.8123 18.8974
v  -22.7360 142.7607 17.7486
v  -22.7342 141.5192 17.7626
v  -22.2288 135.3770 20.5075
v  -22.3499 136.5887 19.5882
v  -22.4473 137.8109 18.8477
v  -22.5986 142.7608 17.6987
v  -22.5968 141.5190 17.7125
v  -22.2037 136.5898 19.5879
v  -22.0827 135.3784 20.5070
v  -22.3012 137.8118 18.8475
v  -22.4525 142.7607 17.6987
v  -22.4506 141.5191 17.7125
v  -22.0666 136.5936 19.6365
v  -21.9456 135.3833 20.5550
v  -22.1640 137.8148 18.8967
v  -22.3151 142.7605 17.7486
v  -22.3133 141.5197 17.7626
v  -21.9549 136.5999 19.7283
v  -21.8341 135.3909 20.6458
v  -22.0521 137.8199 18.9893
v  -22.2031 142.7598 17.8426
v  -22.2013 141.5204 17.8564
v  -21.8821 136.6078 19.8522
v  -21.7615 135.4005 20.7685
v  -21.9793 137.8260 19.1143
v  -22.1300 142.7592 17.9690
v  -22.1282 141.5215 17.9830
v  -21.8571 136.6163 19.9933
v  -21.9541 137.8326 19.2565
v  -22.1047 142.7583 18.1131
v  -22.1028 141.5226 18.1269
v  -21.8829 136.6245 20.1346
v  -21.9797 137.8391 19.3988
v  -22.1301 142.7576 18.2570
v  -22.1282 141.5235 18.2708
v  -21.9563 136.6313 20.2589
v  -21.8361 135.4288 21.1714
v  -22.0530 137.8443 19.5240
v  -22.2031 142.7569 18.3836
v  -22.2013 141.5244 18.3974
v  -22.0684 136.6358 20.3512
v  -21.9484 135.4344 21.2629
v  -22.1651 137.8479 19.6171
v  -22.3151 142.7565 18.4774
v  -22.3133 141.5249 18.4914
v  -22.2059 136.6377 20.4007
v  -22.0859 135.4368 21.3120
v  -22.3025 137.8493 19.6666
v  -22.4525 142.7563 18.5275
v  -22.4507 141.5253 18.5413
v  -22.2320 135.4353 21.3125
v  -22.3520 136.6366 20.4011
v  -22.4487 137.8485 19.6668
v  -22.5987 142.7565 18.5275
v  -22.5968 141.5251 18.5413
v  -22.3691 135.4305 21.2645
v  -22.4892 136.6326 20.3524
v  -22.5859 137.8454 19.6176
v  -22.7360 142.7569 18.4774
v  -22.7342 141.5246 18.4914
v  -22.6009 136.6263 20.2605
v  -22.6977 137.8405 19.5250
v  -22.8480 142.7574 18.3836
v  -22.8462 141.5238 18.3974
v  -22.6736 136.6185 20.1365
v  -22.7706 137.8344 19.4000
v  -22.9211 142.7581 18.2570
v  -22.9192 141.5228 18.2708
v  -23.3994 142.7213 16.8477
v  -23.3681 142.7213 16.6707
v  -23.3981 142.3323 16.6707
v  -23.4293 142.3323 16.8477
v  -23.2783 142.7213 16.5149
v  -23.3082 142.3322 16.5149
v  -23.1406 142.7213 16.3995
v  -23.1705 142.3321 16.3995
v  -22.9717 142.7213 16.3379
v  -23.0016 142.3319 16.3379
v  -22.7919 142.7213 16.3379
v  -22.8219 142.3317 16.3379
v  -22.6230 142.7213 16.3995
v  -22.6530 142.3316 16.3995
v  -22.4853 142.7213 16.5149
v  -22.5153 142.3314 16.5149
v  -22.3954 142.7213 16.6707
v  -22.4254 142.3313 16.6707
v  -22.3642 142.7213 16.8477
v  -22.3942 142.3313 16.8477
v  -22.3954 142.7213 17.0247
v  -22.4254 142.3313 17.0247
v  -22.4853 142.7213 17.1803
v  -22.5153 142.3314 17.1803
v  -22.6230 142.7213 17.2959
v  -22.6530 142.3316 17.2959
v  -22.7919 142.7213 17.3573
v  -22.8219 142.3317 17.3573
v  -22.9717 142.7213 17.3573
v  -23.0016 142.3319 17.3573
v  -23.1406 142.7213 17.2959
v  -23.1705 142.3321 17.2959
v  -23.2783 142.7213 17.1803
v  -23.3082 142.3322 17.1803
v  -23.3681 142.7213 17.0247
v  -23.3981 142.3323 17.0247
v  -23.4878 141.9433 16.6707
v  -23.5190 141.9433 16.8477
v  -23.3979 141.9431 16.5149
v  -23.2603 141.9429 16.3995
v  -23.0914 141.9425 16.3379
v  -22.9117 141.9422 16.3379
v  -22.7428 141.9419 16.3995
v  -22.6052 141.9416 16.5149
v  -22.5153 141.9414 16.6707
v  -22.4841 141.9413 16.8477
v  -22.5153 141.9414 17.0247
v  -22.6052 141.9416 17.1803
v  -22.7428 141.9419 17.2959
v  -22.9117 141.9422 17.3573
v  -23.0914 141.9425 17.3573
v  -23.2603 141.9429 17.2959
v  -23.3979 141.9431 17.1803
v  -23.4878 141.9433 17.0247
v  -23.6373 141.5544 16.6707
v  -23.6685 141.5545 16.8477
v  -23.5475 141.5542 16.5149
v  -23.4099 141.5538 16.3995
v  -23.2411 141.5533 16.3379
v  -23.0614 141.5527 16.3379
v  -22.8926 141.5522 16.3995
v  -22.7550 141.5518 16.5149
v  -22.6652 141.5516 16.6707
v  -22.6340 141.5515 16.8477
v  -22.6652 141.5516 17.0247
v  -22.7550 141.5518 17.1803
v  -22.8926 141.5522 17.2959
v  -23.0614 141.5527 17.3573
v  -23.2411 141.5533 17.3573
v  -23.4099 141.5538 17.2959
v  -23.5475 141.5542 17.1803
v  -23.6373 141.5544 17.0247
v  -23.8466 141.1657 16.6707
v  -23.8777 141.1658 16.8477
v  -23.7568 141.1654 16.5149
v  -23.6193 141.1648 16.3995
v  -23.4505 141.1642 16.3379
v  -23.2710 141.1635 16.3379
v  -23.1023 141.1628 16.3995
v  -22.9648 141.1623 16.5149
v  -22.8750 141.1619 16.6707
v  -22.8438 141.1618 16.8477
v  -22.8750 141.1619 17.0247
v  -22.9648 141.1623 17.1803
v  -23.1023 141.1628 17.2959
v  -23.2710 141.1635 17.3573
v  -23.4505 141.1642 17.3573
v  -23.6193 141.1648 17.2959
v  -23.7568 141.1654 17.1803
v  -23.8466 141.1657 17.0247
v  -24.1156 140.7772 16.6707
v  -24.1467 140.7774 16.8477
v  -24.0259 140.7768 16.5149
v  -23.8884 140.7761 16.3995
v  -23.7198 140.7753 16.3379
v  -23.5404 140.7744 16.3379
v  -23.3718 140.7736 16.3995
v  -23.2344 140.7730 16.5149
v  -23.1447 140.7725 16.6707
v  -23.1135 140.7724 16.8477
v  -23.1447 140.7725 17.0247
v  -23.2344 140.7730 17.1803
v  -23.3718 140.7736 17.2959
v  -23.5404 140.7744 17.3573
v  -23.7198 140.7753 17.3573
v  -23.8884 140.7761 17.2959
v  -24.0259 140.7768 17.1803
v  -24.1156 140.7772 17.0247
v  -36.0910 149.6567 -17.7663
v  -36.0910 149.6567 -20.6153
v  36.2773 149.6567 -20.6153
v  36.2773 149.6567 -17.7661
v  -36.0910 197.9164 -17.7661
v  36.2773 197.9164 -17.7661
v  -36.0910 197.9164 -20.6153
v  36.2773 197.9164 -20.6153
v  -37.2956 198.5073 -21.3125
v  -37.2956 197.7290 -21.3125
v  -37.2956 197.7290 18.9212
v  -37.2956 198.5073 18.9212
v  37.2956 197.7290 18.9212
v  37.2956 197.7290 -21.3125
v  37.2956 198.5073 -21.3125
v  37.2956 198.5073 18.9212
# 700 vertices

vn -0.9397 -0.0020 -0.3419
vn -0.9375 -0.1651 -0.3062
vn -0.9845 -0.1755 -0.0000
vn -1.0000 -0.0023 -0.0000
vn -0.7661 -0.0013 -0.6427
vn -0.7939 -0.1346 -0.5930
vn -0.5001 -0.0006 -0.8660
vn -0.5495 -0.0862 -0.8310
vn -0.1737 -0.0001 -0.9848
vn -0.2143 -0.0268 -0.9764
vn 0.1737 -0.0001 -0.9848
vn 0.1682 0.0337 -0.9852
vn 0.5001 -0.0006 -0.8660
vn 0.5220 0.0857 -0.8486
vn 0.7661 -0.0013 -0.6427
vn 0.7849 0.1242 -0.6070
vn 0.9397 -0.0020 -0.3419
vn 0.9383 0.1474 -0.3128
vn 1.0000 -0.0023 0.0000
vn 0.9879 0.1550 -0.0000
vn 0.9397 -0.0020 0.3419
vn 0.9383 0.1474 0.3128
vn 0.7661 -0.0013 0.6427
vn 0.7849 0.1242 0.6070
vn 0.5001 -0.0006 0.8660
vn 0.5220 0.0857 0.8486
vn 0.1737 -0.0001 0.9848
vn 0.1682 0.0337 0.9852
vn -0.1737 -0.0001 0.9848
vn -0.2143 -0.0268 0.9764
vn -0.5001 -0.0006 0.8660
vn -0.5495 -0.0862 0.8310
vn -0.7661 -0.0013 0.6427
vn -0.7939 -0.1346 0.5930
vn -0.9397 -0.0020 0.3419
vn -0.9375 -0.1651 0.3062
vn -0.0296 -0.9769 -0.2117
vn 0.0344 -0.9085 -0.4164
vn 0.0344 -0.9085 0.4164
vn -0.0296 -0.9769 0.2117
vn -0.7609 -0.5661 -0.3171
vn -0.8027 -0.5963 -0.0000
vn -0.6364 -0.4755 -0.6073
vn -0.4346 -0.3273 -0.8390
vn -0.1720 -0.1319 -0.9762
vn 0.1192 0.0870 -0.9890
vn 0.3954 0.2950 -0.8698
vn 0.6160 0.4597 -0.6397
vn 0.7550 0.5625 -0.3369
vn 0.8022 0.5971 0.0000
vn 0.7550 0.5625 0.3369
vn 0.6160 0.4597 0.6397
vn 0.3954 0.2950 0.8698
vn 0.1192 0.0870 0.9890
vn -0.1720 -0.1319 0.9762
vn -0.4346 -0.3273 0.8390
vn -0.6364 -0.4755 0.6073
vn -0.7609 -0.5661 0.3171
vn -0.0499 -0.9988 -0.0000
vn 0.1485 -0.7886 -0.5967
vn 0.3129 -0.6196 -0.7198
vn 0.5099 -0.4225 -0.7494
vn 0.7050 -0.2325 -0.6700
vn 0.8637 -0.0815 -0.4974
vn 0.9647 0.0130 -0.2632
vn 0.9990 0.0449 0.0000
vn 0.9647 0.0130 0.2632
vn 0.8637 -0.0815 0.4974
vn 0.7050 -0.2325 0.6700
vn 0.5099 -0.4225 0.7494
vn 0.3129 -0.6196 0.7198
vn 0.1485 -0.7886 0.5967
vn -0.9397 0.0000 -0.3420
vn -0.6976 -0.6700 -0.2539
vn -0.7423 -0.6700 0.0000
vn -1.0000 -0.0000 0.0000
vn -0.7660 0.0000 -0.6428
vn -0.5687 -0.6700 -0.4772
vn -0.5000 0.0000 -0.8660
vn -0.3712 -0.6700 -0.6429
vn -0.1736 0.0000 -0.9848
vn -0.1289 -0.6700 -0.7311
vn 0.1736 0.0000 -0.9848
vn 0.1289 -0.6700 -0.7311
vn 0.5000 0.0000 -0.8660
vn 0.3712 -0.6700 -0.6429
vn 0.7660 0.0000 -0.6428
vn 0.5687 -0.6700 -0.4772
vn 0.9397 0.0000 -0.3420
vn 0.6975 -0.6701 -0.2539
vn 1.0000 0.0000 0.0000
vn 0.7423 -0.6701 0.0000
vn 0.9397 -0.0000 0.3420
vn 0.6975 -0.6702 0.2539
vn 0.7660 -0.0000 0.6428
vn 0.5687 -0.6700 0.4772
vn 0.5000 -0.0000 0.8660
vn 0.3712 -0.6700 0.6429
vn 0.1736 -0.0000 0.9848
vn 0.1289 -0.6700 0.7311
vn -0.1736 -0.0000 0.9848
vn -0.1289 -0.6700 0.7311
vn -0.5000 -0.0000 0.8660
vn -0.3712 -0.6700 0.6429
vn -0.7660 -0.0000 0.6428
vn -0.5687 -0.6700 0.4772
vn -0.9397 -0.0000 0.3420
vn -0.6976 -0.6700 0.2539
vn -0.9199 0.0594 -0.3876
vn -0.8724 0.2920 -0.3919
vn -0.9484 0.3172 0.0000
vn -0.9979 0.0644 -0.0000
vn -0.7145 0.0461 -0.6981
vn -0.6742 0.2259 -0.7032
vn -0.4380 0.0283 -0.8985
vn -0.4104 0.1370 -0.9015
vn -0.1338 0.0086 -0.9910
vn -0.1228 0.0391 -0.9917
vn 0.1751 -0.0113 -0.9845
vn 0.1681 -0.0599 -0.9839
vn 0.4733 -0.0305 -0.8804
vn 0.4491 -0.1543 -0.8800
vn 0.7373 -0.0476 -0.6739
vn 0.6993 -0.2363 -0.6746
vn 0.9275 -0.0598 -0.3691
vn 0.8812 -0.2940 -0.3703
vn 0.9979 -0.0644 0.0000
vn 0.9491 -0.3150 0.0000
vn 0.9275 -0.0598 0.3691
vn 0.8812 -0.2940 0.3703
vn 0.7373 -0.0476 0.6739
vn 0.6993 -0.2363 0.6746
vn 0.4733 -0.0305 0.8804
vn 0.4491 -0.1543 0.8800
vn 0.1751 -0.0113 0.9845
vn 0.1682 -0.0599 0.9839
vn -0.1338 0.0086 0.9910
vn -0.1228 0.0391 0.9917
vn -0.4380 0.0283 0.8985
vn -0.4104 0.1370 0.9015
vn -0.7145 0.0461 0.6981
vn -0.6742 0.2259 0.7032
vn -0.9199 0.0594 0.3876
vn -0.8724 0.2920 0.3919
vn -0.6789 0.6442 -0.3523
vn -0.7257 0.6881 -0.0000
vn -0.5462 0.5193 -0.6572
vn -0.3480 0.3309 -0.8772
vn -0.1111 0.1037 -0.9884
vn 0.1362 -0.1346 -0.9815
vn 0.3665 -0.3562 -0.8596
vn 0.5542 -0.5358 -0.6370
vn 0.6774 -0.6529 -0.3389
vn 0.7204 -0.6936 -0.0000
vn 0.6774 -0.6529 0.3389
vn 0.5542 -0.5358 0.6370
vn 0.3665 -0.3562 0.8596
vn 0.1362 -0.1346 0.9815
vn -0.1111 0.1037 0.9884
vn -0.3480 0.3309 0.8772
vn -0.5462 0.5193 0.6572
vn -0.6789 0.6442 0.3523
vn -0.3990 0.8624 -0.3116
vn -0.4203 0.9074 -0.0000
vn -0.3331 0.7228 -0.6055
vn -0.2204 0.4823 -0.8478
vn -0.0695 0.1566 -0.9852
vn 0.0919 -0.1993 -0.9756
vn 0.2307 -0.5134 -0.8265
vn 0.3289 -0.7410 -0.5855
vn 0.3847 -0.8728 -0.3004
vn 0.4026 -0.9154 0.0000
vn 0.3847 -0.8728 0.3004
vn 0.3289 -0.7410 0.5855
vn 0.2307 -0.5134 0.8265
vn 0.0919 -0.1993 0.9756
vn -0.0695 0.1566 0.9852
vn -0.2204 0.4823 0.8478
vn -0.3331 0.7228 0.6055
vn -0.3990 0.8624 0.3116
vn 0.1341 0.9453 -0.2973
vn 0.1394 0.9902 0.0000
vn 0.1155 0.8007 -0.5878
vn 0.0769 0.5365 -0.8404
vn 0.0176 0.1605 -0.9869
vn -0.0432 -0.2491 -0.9675
vn -0.0854 -0.5926 -0.8010
vn -0.1088 -0.8251 -0.5544
vn -0.1200 -0.9525 -0.2800
vn -0.1233 -0.9924 -0.0000
vn -0.1200 -0.9525 0.2800
vn -0.1088 -0.8251 0.5544
vn -0.0854 -0.5926 0.8010
vn -0.0432 -0.2491 0.9675
vn 0.0176 0.1605 0.9869
vn 0.0769 0.5365 0.8404
vn 0.1155 0.8007 0.5878
vn 0.1341 0.9453 0.2973
vn 0.6627 0.7489 0.0000
vn 0.6338 0.7173 -0.2896
vn 0.8139 0.4660 -0.3470
vn 0.8686 0.4956 0.0000
vn 0.5394 0.6145 -0.5757
vn 0.6574 0.3803 -0.6505
vn 0.3633 0.4228 -0.8302
vn 0.4207 0.2476 -0.8727
vn 0.1097 0.1417 -0.9838
vn 0.1359 0.0828 -0.9873
vn -0.1606 -0.1753 -0.9713
vn -0.1605 -0.0952 -0.9824
vn -0.3773 -0.4506 -0.8091
vn -0.4336 -0.2655 -0.8611
vn -0.5184 -0.6434 -0.5633
vn -0.6534 -0.4072 -0.6382
vn -0.5941 -0.7520 -0.2857
vn -0.7959 -0.5013 -0.3395
vn -0.6176 -0.7865 -0.0000
vn -0.8453 -0.5343 -0.0000
vn -0.5941 -0.7520 0.2857
vn -0.7959 -0.5013 0.3395
vn -0.5184 -0.6434 0.5633
vn -0.6534 -0.4072 0.6382
vn -0.3773 -0.4506 0.8091
vn -0.4336 -0.2655 0.8611
vn -0.1606 -0.1753 0.9713
vn -0.1605 -0.0952 0.9824
vn 0.1097 0.1417 0.9838
vn 0.1359 0.0828 0.9873
vn 0.3633 0.4228 0.8302
vn 0.4207 0.2476 0.8727
vn 0.5394 0.6145 0.5757
vn 0.6574 0.3803 0.6505
vn 0.6338 0.7173 0.2896
vn 0.8139 0.4660 0.3470
vn 0.8938 0.2243 -0.3884
vn 0.9700 0.2430 -0.0000
vn 0.6939 0.1750 -0.6985
vn 0.4265 0.1083 -0.8980
vn 0.1337 0.0341 -0.9904
vn -0.1635 -0.0426 -0.9856
vn -0.4514 -0.1181 -0.8845
vn -0.7089 -0.1862 -0.6803
vn -0.8967 -0.2361 -0.3745
vn -0.9670 -0.2548 -0.0000
vn -0.8967 -0.2361 0.3745
vn -0.7089 -0.1862 0.6803
vn -0.4514 -0.1181 0.8845
vn -0.1635 -0.0426 0.9856
vn 0.1337 0.0341 0.9904
vn 0.4265 0.1083 0.8980
vn 0.6939 0.1750 0.6985
vn 0.8938 0.2243 0.3884
vn 0.9181 0.0823 -0.3878
vn 0.9960 0.0893 -0.0000
vn 0.7128 0.0639 -0.6984
vn 0.4365 0.0391 -0.8988
vn 0.1326 0.0119 -0.9911
vn -0.1760 -0.0158 -0.9843
vn -0.4737 -0.0424 -0.8797
vn -0.7368 -0.0660 -0.6729
vn -0.9260 -0.0830 -0.3683
vn -0.9960 -0.0893 -0.0000
vn -0.9260 -0.0830 0.3683
vn -0.7368 -0.0660 0.6729
vn -0.4737 -0.0424 0.8797
vn -0.1760 -0.0158 0.9843
vn 0.1326 0.0119 0.9911
vn 0.4365 0.0391 0.8988
vn 0.7128 0.0639 0.6984
vn 0.9181 0.0823 0.3878
vn 0.6976 -0.6700 -0.2539
vn 1.0000 0.0000 -0.0000
vn 0.7423 -0.6700 0.0000
vn 0.6976 -0.6700 0.2539
vn 0.5686 -0.6701 0.4771
vn -0.7661 -0.0000 0.6428
vn -0.5686 -0.6701 0.4772
vn -0.6975 -0.6701 -0.2539
vn -0.7423 -0.6701 -0.0000
vn -1.0000 0.0000 -0.0000
vn 0.1298 -0.6698 -0.7311
vn 0.5000 -0.0000 -0.8660
vn 0.3711 -0.6705 -0.6424
vn 0.5683 -0.6698 -0.4778
vn 1.0000 -0.0000 0.0000
vn -0.6975 -0.6701 0.2539
vn -0.7121 0.6531 -0.2577
vn -0.9364 -0.0906 -0.3390
vn -0.9954 -0.0962 -0.0000
vn -0.7583 0.6520 -0.0000
vn -0.5797 0.6562 -0.4831
vn -0.7660 -0.0744 -0.6386
vn -0.3782 0.6610 -0.6481
vn -0.5032 -0.0492 -0.8628
vn -0.1333 0.6668 -0.7332
vn -0.1787 -0.0179 -0.9837
vn 0.1246 0.6730 -0.7290
vn 0.1684 0.0159 -0.9856
vn 0.3641 0.6789 -0.6376
vn 0.4953 0.0480 -0.8674
vn 0.5574 0.6836 -0.4711
vn 0.7616 0.0742 -0.6438
vn 0.6826 0.6867 -0.2499
vn 0.9351 0.0913 -0.3424
vn 0.7259 0.6878 0.0000
vn 0.9953 0.0972 -0.0000
vn 0.6826 0.6867 0.2499
vn 0.9351 0.0913 0.3424
vn 0.5574 0.6836 0.4711
vn 0.7616 0.0742 0.6438
vn 0.3641 0.6789 0.6376
vn 0.4953 0.0480 0.8674
vn 0.1246 0.6730 0.7290
vn 0.1684 0.0159 0.9856
vn -0.1333 0.6668 0.7332
vn -0.1787 -0.0179 0.9837
vn -0.3782 0.6610 0.6481
vn -0.5032 -0.0492 0.8628
vn -0.5797 0.6562 0.4831
vn -0.7660 -0.0744 0.6386
vn -0.7121 0.6530 0.2577
vn -0.9364 -0.0906 0.3390
vn -0.9249 -0.1791 -0.3353
vn -0.9818 -0.1899 0.0000
vn -0.7593 -0.1475 -0.6338
vn -0.5009 -0.0980 -0.8600
vn -0.1783 -0.0357 -0.9833
vn 0.1683 0.0318 -0.9852
vn 0.4934 0.0956 -0.8646
vn 0.7552 0.1471 -0.6388
vn 0.9236 0.1804 -0.3384
vn 0.9814 0.1918 -0.0000
vn 0.9236 0.1804 0.3384
vn 0.7552 0.1471 0.6388
vn 0.4933 0.0956 0.8646
vn 0.1683 0.0318 0.9852
vn -0.1783 -0.0357 0.9833
vn -0.5009 -0.0980 0.8600
vn -0.7593 -0.1475 0.6338
vn -0.9249 -0.1791 0.3353
vn -0.9067 -0.2634 -0.3294
vn -0.9604 -0.2787 0.0000
vn -0.7485 -0.2182 -0.6262
vn -0.4970 -0.1459 -0.8554
vn -0.1776 -0.0533 -0.9827
vn 0.1681 0.0477 -0.9846
vn 0.4901 0.1425 -0.8599
vn 0.7448 0.2177 -0.6307
vn 0.9052 0.2652 -0.3321
vn 0.9596 0.2813 0.0000
vn 0.9052 0.2652 0.3321
vn 0.7448 0.2177 0.6307
vn 0.4901 0.1425 0.8599
vn 0.1681 0.0477 0.9846
vn -0.1776 -0.0533 0.9827
vn -0.4970 -0.1459 0.8554
vn -0.7485 -0.2182 0.6262
vn -0.9067 -0.2634 0.3294
vn -0.8829 -0.3422 -0.3217
vn -0.9325 -0.3611 -0.0000
vn -0.7342 -0.2855 -0.6160
vn -0.4919 -0.1925 -0.8491
vn -0.1767 -0.0707 -0.9817
vn 0.1679 0.0636 -0.9838
vn 0.4857 0.1884 -0.8536
vn 0.7310 0.2850 -0.6200
vn 0.8812 0.3444 -0.3237
vn 0.9313 0.3642 -0.0000
vn 0.8812 0.3444 0.3237
vn 0.7310 0.2850 0.6200
vn 0.4857 0.1884 0.8536
vn 0.1679 0.0636 0.9838
vn -0.1767 -0.0707 0.9817
vn -0.4918 -0.1925 0.8491
vn -0.7342 -0.2855 0.6160
vn -0.8829 -0.3422 0.3217
vn -0.5544 -0.8043 -0.2138
vn -0.5837 -0.8120 0.0000
vn -0.4638 -0.7811 -0.4180
vn -0.3076 -0.7423 -0.5953
vn -0.0886 -0.6908 -0.7176
vn 0.1723 -0.6337 -0.7541
vn 0.4368 -0.5807 -0.6870
vn 0.6615 -0.5393 -0.5211
vn 0.8109 -0.5136 -0.2804
vn 0.8632 -0.5049 0.0000
vn 0.8109 -0.5136 0.2804
vn 0.6615 -0.5393 0.5211
vn 0.4368 -0.5807 0.6870
vn 0.1723 -0.6337 0.7541
vn -0.0886 -0.6908 0.7176
vn -0.3076 -0.7423 0.5953
vn -0.4638 -0.7811 0.4180
vn -0.5544 -0.8044 0.2138
vn -0.9190 -0.2054 -0.3364
vn -0.9979 -0.0649 -0.0062
vn -0.9992 -0.0403 -0.0082
vn -0.9299 -0.1281 -0.3447
vn -0.7282 -0.3128 -0.6098
vn -0.7487 -0.1978 -0.6327
vn -0.4637 -0.3795 -0.8006
vn -0.4837 -0.2430 -0.8409
vn -0.1590 -0.4049 -0.9005
vn -0.1675 -0.2606 -0.9508
vn 0.1670 -0.2500 -0.9537
vn 0.1610 -0.3897 -0.9068
vn 0.4861 -0.2116 -0.8479
vn 0.4724 -0.3334 -0.8159
vn 0.7543 -0.1476 -0.6397
vn 0.7438 -0.2359 -0.6254
vn 0.9352 -0.0634 -0.3485
vn 0.9330 -0.1023 -0.3450
vn 0.9995 0.0309 -0.0094
vn 0.9987 0.0508 -0.0093
vn 0.9359 0.1218 0.3305
vn 0.9251 0.1967 0.3247
vn 0.7561 0.1964 0.6243
vn 0.7343 0.3113 0.6032
vn 0.4887 0.2455 0.8372
vn 0.4670 0.3831 0.7969
vn 0.1680 0.2648 0.9496
vn 0.1590 0.4104 0.8979
vn -0.1643 0.3941 0.9043
vn -0.1716 0.2532 0.9521
vn -0.4793 0.3334 0.8119
vn -0.4949 0.2113 0.8429
vn -0.7529 0.2289 0.6171
vn -0.7642 0.1425 0.6291
vn -0.9394 0.0890 0.3312
vn -0.9415 0.0545 0.3325
vn 0.7970 -0.5960 0.0982
vn 0.7859 -0.4867 0.3813
vn -0.6207 -0.4639 0.6321
vn -0.7356 -0.5665 0.3714
vn -0.5958 -0.7922 -0.1321
vn -0.7207 -0.6867 0.0951
vn -0.9939 -0.1107 -0.0006
vn -0.8854 -0.3445 -0.3120
vn -0.9961 -0.0884 -0.0036
vn -0.9039 -0.2778 -0.3253
vn -0.7427 0.6696 0.0016
vn -0.6993 0.6685 -0.2530
vn -0.9358 -0.0473 -0.3492
vn -0.9998 -0.0148 -0.0093
vn -0.4232 -0.8612 -0.2815
vn -0.6694 -0.5038 -0.5459
vn -0.7009 -0.4153 -0.5799
vn -0.5709 0.6677 -0.4777
vn -0.7601 -0.0737 -0.6456
vn -0.2469 -0.8968 -0.3670
vn -0.4101 -0.5916 -0.6941
vn -0.4382 -0.4959 -0.7496
vn -0.3730 0.6671 -0.6448
vn -0.4950 -0.0911 -0.8641
vn -0.0758 -0.9088 -0.4102
vn -0.1368 -0.6226 -0.7704
vn -0.1483 -0.5256 -0.8377
vn -0.1295 0.6669 -0.7339
vn -0.1724 -0.0980 -0.9801
vn 0.1448 -0.6042 -0.7835
vn 0.0982 -0.9018 -0.4209
vn 0.1533 -0.5079 -0.8477
vn 0.1298 0.6670 -0.7336
vn 0.1703 -0.0939 -0.9809
vn 0.4334 -0.5319 -0.7275
vn 0.2861 -0.8728 -0.3954
vn 0.4543 -0.4406 -0.7743
vn 0.3731 0.6675 -0.6444
vn 0.4938 -0.0790 -0.8660
vn 0.7119 -0.3917 -0.5830
vn 0.4901 -0.8131 -0.3142
vn 0.7294 -0.3176 -0.6059
vn 0.5707 0.6683 -0.4771
vn 0.7600 -0.0546 -0.6477
vn 0.9261 -0.1749 -0.3344
vn 0.6820 -0.7158 -0.1500
vn 0.9300 -0.1395 -0.3402
vn 0.6987 0.6693 -0.2526
vn 0.9363 -0.0234 -0.3505
vn 0.9958 0.0908 -0.0101
vn 0.9974 0.0708 -0.0095
vn 0.7420 0.6704 0.0016
vn 0.9999 0.0113 -0.0095
vn 0.8913 0.3348 0.3057
vn 0.9100 0.2680 0.3164
vn 0.6958 0.6715 0.2549
vn 0.9417 0.0448 0.3335
vn 0.6723 0.5038 0.5425
vn 0.6535 -0.4079 0.6377
vn 0.7054 0.4143 0.5751
vn 0.5663 0.6724 0.4767
vn 0.7683 0.0730 0.6359
vn 0.4102 0.5959 0.6904
vn 0.4322 -0.3615 0.8261
vn 0.4398 0.5001 0.7460
vn 0.3693 0.6729 0.6410
vn 0.5012 0.0921 0.8604
vn 0.1363 0.6281 0.7661
vn 0.1587 -0.3443 0.9253
vn 0.1480 0.5314 0.8341
vn 0.1283 0.6732 0.7282
vn 0.1732 0.0998 0.9798
vn -0.1323 -0.3547 0.9256
vn -0.1456 0.6090 0.7797
vn -0.1552 0.5128 0.8444
vn -0.1279 0.6730 0.7285
vn -0.1758 0.0951 0.9798
vn -0.4053 -0.3934 0.8252
vn -0.4361 0.5333 0.7248
vn -0.4590 0.4413 0.7711
vn -0.3691 0.6726 0.6414
vn -0.5037 0.0787 0.8603
vn -0.7185 0.3849 0.5793
vn -0.7373 0.3102 0.6001
vn -0.5666 0.6716 0.4773
vn -0.7703 0.0526 0.6355
vn -0.9323 0.1568 0.3258
vn -0.9363 0.1233 0.3290
vn -0.6964 0.6708 0.2552
vn -0.9427 0.0199 0.3331
vn -0.7116 0.7026 -0.0000
vn -0.6697 0.7006 -0.2464
vn -0.9253 0.1668 -0.3405
vn -0.9841 0.1776 -0.0000
vn -0.5478 0.6949 -0.4657
vn -0.7548 0.1356 -0.6418
vn -0.3582 0.6862 -0.6331
vn -0.4905 0.0873 -0.8670
vn -0.1209 0.6754 -0.7274
vn -0.1641 0.0279 -0.9861
vn 0.1370 0.6639 -0.7351
vn 0.1826 -0.0345 -0.9826
vn 0.3842 0.6531 -0.6526
vn 0.5045 -0.0915 -0.8585
vn 0.5890 0.6442 -0.4879
vn 0.7624 -0.1363 -0.6326
vn 0.7241 0.6385 -0.2608
vn 0.9278 -0.1646 -0.3348
vn 0.7713 0.6365 0.0000
vn 0.9847 -0.1743 -0.0000
vn 0.7241 0.6385 0.2608
vn 0.9278 -0.1646 0.3348
vn 0.5890 0.6442 0.4879
vn 0.7624 -0.1363 0.6326
vn 0.3842 0.6531 0.6526
vn 0.5045 -0.0915 0.8585
vn 0.1370 0.6639 0.7351
vn 0.1826 -0.0345 0.9826
vn -0.1209 0.6754 0.7274
vn -0.1641 0.0279 0.9861
vn -0.3582 0.6862 0.6331
vn -0.4905 0.0873 0.8670
vn -0.5478 0.6949 0.4657
vn -0.7548 0.1356 0.6418
vn -0.6697 0.7006 0.2464
vn -0.9253 0.1668 0.3405
vn -0.8888 0.3207 -0.3273
vn -0.9406 0.3396 0.0000
vn -0.7345 0.2641 -0.6251
vn -0.4848 0.1727 -0.8574
vn -0.1642 0.0559 -0.9848
vn 0.1809 -0.0683 -0.9811
vn 0.4965 -0.1800 -0.8492
vn 0.7406 -0.2649 -0.6175
vn 0.8917 -0.3168 -0.3232
vn 0.9426 -0.3341 -0.0000
vn 0.8917 -0.3168 0.3232
vn 0.7406 -0.2649 0.6175
vn 0.4965 -0.1800 0.8492
vn 0.1809 -0.0683 0.9811
vn -0.1642 0.0559 0.9848
vn -0.4848 0.1727 0.8574
vn -0.7345 0.2641 0.6251
vn -0.8888 0.3207 0.3273
vn -0.8365 0.4529 -0.3085
vn -0.8792 0.4764 -0.0000
vn -0.7039 0.3800 -0.6001
vn -0.4754 0.2544 -0.8422
vn -0.1642 0.0842 -0.9828
vn 0.1784 -0.1009 -0.9788
vn 0.4841 -0.2631 -0.8345
vn 0.7084 -0.3802 -0.5946
vn 0.8399 -0.4481 -0.3063
vn 0.8826 -0.4700 0.0000
vn 0.8399 -0.4481 0.3063
vn 0.7084 -0.3802 0.5946
vn 0.4841 -0.2631 0.8345
vn 0.1784 -0.1009 0.9788
vn -0.1642 0.0842 0.9828
vn -0.4754 0.2544 0.8422
vn -0.7039 0.3800 0.6001
vn -0.8365 0.4529 0.3085
vn -0.7765 0.5610 -0.2869
vn -0.8104 0.5859 -0.0000
vn -0.6667 0.4804 -0.5698
vn -0.4628 0.3308 -0.8224
vn -0.1638 0.1124 -0.9801
vn 0.1754 -0.1320 -0.9756
vn 0.4688 -0.3395 -0.8155
vn 0.6700 -0.4797 -0.5666
vn 0.7803 -0.5559 -0.2864
vn 0.8148 -0.5797 -0.0000
vn 0.7803 -0.5559 0.2864
vn 0.6700 -0.4797 0.5666
vn 0.4688 -0.3395 0.8155
vn 0.1754 -0.1320 0.9756
vn -0.1638 0.1124 0.9801
vn -0.4628 0.3308 0.8224
vn -0.6667 0.4804 0.5698
vn -0.7765 0.5610 0.2869
vn -0.8661 -0.4050 -0.2930
vn -0.9193 -0.3936 0.0000
vn -0.7125 -0.4408 -0.5459
vn -0.4778 -0.5041 -0.7195
vn -0.1986 -0.5949 -0.7789
vn 0.0685 -0.6988 -0.7120
vn 0.2690 -0.7882 -0.5535
vn 0.3892 -0.8463 -0.3638
vn 0.4483 -0.8760 -0.1778
vn 0.4657 -0.8850 0.0000
vn 0.4482 -0.8761 0.1778
vn 0.3892 -0.8463 0.3638
vn 0.2690 -0.7882 0.5535
vn 0.0685 -0.6988 0.7120
vn -0.1986 -0.5949 0.7789
vn -0.4778 -0.5041 0.7195
vn -0.7125 -0.4408 0.5459
vn -0.8661 -0.4050 0.2930
vn -0.5774 -0.5774 0.5774
vn -0.5774 -0.5774 -0.5774
vn 0.5774 -0.5774 -0.5774
vn 0.5774 -0.5774 0.5774
vn -0.7071 -0.0000 0.7071
vn 0.7071 -0.0000 0.7071
vn -0.7071 0.0000 -0.7071
vn 0.7071 0.0000 -0.7071
vn -0.5774 0.5774 -0.5774
vn -0.5774 0.5774 0.5774
vn 0.5774 0.5774 -0.5774
vn 0.5774 0.5774 0.5774
# 640 vertex normals

vt 0.0738 0.0098 0.0000
vt 0.0750 0.8906 0.0000
vt 0.0710 0.8908 0.0000
vt 0.0703 0.0099 0.0000
vt 0.0774 0.0097 0.0000
vt 0.0790 0.8907 0.0000
vt 0.0810 0.0096 0.0000
vt 0.0830 0.8908 0.0000
vt 0.0845 0.0095 0.0000
vt 0.0866 0.8900 0.0000
vt 0.0285 0.0099 0.0000
vt 0.0210 0.8882 0.0000
vt 0.0178 0.8902 0.0000
vt 0.0253 0.0099 0.0000
vt 0.0316 0.0099 0.0000
vt 0.0243 0.8864 0.0000
vt 0.0347 0.0099 0.0000
vt 0.0277 0.8847 0.0000
vt 0.0378 0.0098 0.0000
vt 0.0312 0.8835 0.0000
vt 0.0408 0.0098 0.0000
vt 0.0350 0.8826 0.0000
vt 0.0439 0.0099 0.0000
vt 0.0389 0.8827 0.0000
vt 0.0470 0.0099 0.0000
vt 0.0430 0.8839 0.0000
vt 0.0501 0.0099 0.0000
vt 0.0473 0.8859 0.0000
vt 0.0533 0.0100 0.0000
vt 0.0515 0.8880 0.0000
vt 0.0566 0.0099 0.0000
vt 0.0554 0.8890 0.0000
vt 0.0600 0.0099 0.0000
vt 0.0593 0.8900 0.0000
vt 0.0634 0.0099 0.0000
vt 0.0633 0.8907 0.0000
vt 0.0668 0.0099 0.0000
vt 0.0672 0.8910 0.0000
vt 0.0738 0.9540 0.0000
vt 0.0773 0.9546 0.0000
vt 0.0662 0.9579 0.0000
vt 0.0682 0.9550 0.0000
vt 0.0752 0.9243 0.0000
vt 0.0716 0.9241 0.0000
vt 0.0788 0.9243 0.0000
vt 0.0826 0.9242 0.0000
vt 0.0865 0.9241 1.0000
vt 0.0175 0.9238 0.0000
vt 0.0133 0.9241 1.0000
vt 0.0219 0.9235 0.0000
vt 0.0264 0.9232 0.0000
vt 0.0310 0.9229 0.0000
vt 0.0358 0.9225 0.0000
vt 0.0405 0.9225 0.0000
vt 0.0451 0.9227 0.0000
vt 0.0494 0.9231 0.0000
vt 0.0534 0.9235 0.0000
vt 0.0573 0.9238 0.0000
vt 0.0609 0.9240 0.0000
vt 0.0645 0.9240 0.0000
vt 0.0680 0.9241 0.0000
vt 0.0705 0.9542 0.0000
vt 0.0803 0.9558 0.0000
vt 0.0833 0.9573 0.0000
vt 0.0224 0.9594 0.0000
vt 0.0184 0.9593 0.0000
vt 0.0263 0.9596 0.0000
vt 0.0302 0.9597 0.0000
vt 0.0340 0.9597 0.0000
vt 0.0378 0.9595 0.0000
vt 0.0416 0.9592 0.0000
vt 0.0453 0.9587 0.0000
vt 0.0491 0.9580 0.0000
vt 0.0529 0.9574 0.0000
vt 0.0567 0.9567 0.0000
vt 0.0605 0.9561 0.0000
vt 0.0644 0.9555 0.0000
vt 0.5034 0.0215 0.0000
vt 0.4995 0.8927 0.0000
vt 0.4892 0.8943 0.0000
vt 0.4924 0.0215 0.0000
vt 0.5145 0.0216 0.0000
vt 0.5101 0.8926 0.0000
vt 0.5256 0.0216 0.0000
vt 0.5206 0.8944 0.0000
vt 0.5360 0.0217 1.0000
vt 0.5307 0.8988 0.0000
vt 0.3554 0.0216 0.0000
vt 0.3532 0.8988 0.0000
vt 0.3427 0.8988 0.0000
vt 0.3450 0.0217 1.0000
vt 0.3659 0.0216 0.0000
vt 0.3637 0.8988 0.0000
vt 0.3764 0.0216 0.0000
vt 0.3741 0.8988 0.0000
vt 0.3869 0.0216 0.0000
vt 0.3846 0.8987 0.0000
vt 0.3974 0.0216 0.0000
vt 0.3951 0.8987 0.0000
vt 0.4079 0.0216 0.0000
vt 0.4056 0.8987 0.0000
vt 0.4184 0.0216 0.0000
vt 0.4161 0.8987 0.0000
vt 0.4289 0.0216 0.0000
vt 0.4266 0.8987 0.0000
vt 0.4394 0.0216 0.0000
vt 0.4371 0.8987 0.0000
vt 0.4498 0.0216 0.0000
vt 0.4475 0.8987 0.0000
vt 0.4603 0.0215 0.0000
vt 0.4580 0.8987 0.0000
vt 0.4708 0.0215 0.0000
vt 0.4685 0.8987 0.0000
vt 0.4813 0.0215 0.0000
vt 0.4790 0.8987 0.0000
vt 0.4763 0.9459 0.0000
vt 0.4705 0.9345 0.0000
vt 0.4720 0.9094 0.0000
vt 0.9780 0.0126 0.0000
vt 0.9729 0.1462 0.0000
vt 0.9694 0.1462 0.0000
vt 0.9743 0.0113 0.0000
vt 0.9819 0.0130 0.0000
vt 0.9764 0.1463 0.0000
vt 0.9857 0.0121 0.0000
vt 0.9801 0.1464 0.0000
vt 0.9894 0.0102 1.0000
vt 0.9839 0.1466 0.0000
vt 0.9091 0.0087 0.0000
vt 0.9229 0.1482 0.0000
vt 0.9191 0.1485 0.0000
vt 0.9039 0.0102 1.0000
vt 0.9142 0.0074 0.0000
vt 0.9266 0.1479 0.0000
vt 0.9192 0.0062 0.0000
vt 0.9302 0.1476 0.0000
vt 0.9241 0.0054 0.0000
vt 0.9336 0.1474 0.0000
vt 0.9289 0.0051 0.0000
vt 0.9369 0.1472 0.0000
vt 0.9337 0.0051 0.0000
vt 0.9401 0.1470 0.0000
vt 0.9386 0.0055 0.0000
vt 0.9435 0.1468 0.0000
vt 0.9437 0.0062 0.0000
vt 0.9471 0.1466 0.0000
vt 0.9489 0.0071 0.0000
vt 0.9508 0.1464 0.0000
vt 0.9543 0.0082 0.0000
vt 0.9547 0.1463 0.0000
vt 0.9595 0.0092 0.0000
vt 0.9585 0.1462 0.0000
vt 0.9646 0.0102 0.0000
vt 0.9622 0.1462 0.0000
vt 0.9695 0.0109 0.0000
vt 0.9658 0.1461 0.0000
vt 0.9708 0.2758 0.0000
vt 0.9683 0.2757 0.0000
vt 0.9734 0.2759 0.0000
vt 0.9761 0.2761 0.0000
vt 0.9788 0.2764 0.0000
vt 0.9348 0.2777 0.0000
vt 0.9321 0.2778 0.0000
vt 0.9374 0.2776 0.0000
vt 0.9400 0.2776 0.0000
vt 0.9425 0.2775 0.0000
vt 0.9449 0.2773 0.0000
vt 0.9474 0.2771 0.0000
vt 0.9499 0.2769 0.0000
vt 0.9524 0.2767 0.0000
vt 0.9551 0.2765 0.0000
vt 0.9577 0.2762 0.0000
vt 0.9604 0.2760 0.0000
vt 0.9631 0.2758 0.0000
vt 0.9657 0.2757 0.0000
vt 0.9690 0.3766 0.0000
vt 0.9671 0.3765 0.0000
vt 0.9709 0.3769 0.0000
vt 0.9727 0.3773 0.0000
vt 0.9745 0.3778 0.0000
vt 0.9443 0.3788 0.0000
vt 0.9425 0.3786 0.0000
vt 0.9460 0.3789 0.0000
vt 0.9477 0.3790 0.0000
vt 0.9495 0.3790 0.0000
vt 0.9512 0.3790 0.0000
vt 0.9529 0.3788 0.0000
vt 0.9546 0.3785 0.0000
vt 0.9563 0.3782 0.0000
vt 0.9580 0.3778 0.0000
vt 0.9598 0.3773 0.0000
vt 0.9615 0.3770 0.0000
vt 0.9633 0.3767 0.0000
vt 0.9652 0.3765 0.0000
vt 0.9669 0.4104 0.0000
vt 0.9655 0.4104 0.0000
vt 0.9683 0.4105 0.0000
vt 0.9696 0.4105 0.0000
vt 0.9708 0.4105 0.0000
vt 0.9494 0.4108 0.0000
vt 0.9482 0.4111 0.0000
vt 0.9505 0.4106 0.0000
vt 0.9517 0.4104 0.0000
vt 0.9529 0.4102 0.0000
vt 0.9541 0.4101 0.0000
vt 0.9554 0.4100 0.0000
vt 0.9566 0.4100 0.0000
vt 0.9577 0.4100 0.0000
vt 0.9589 0.4100 0.0000
vt 0.9601 0.4101 0.0000
vt 0.9613 0.4102 0.0000
vt 0.9627 0.4103 0.0000
vt 0.9640 0.4104 0.0000
vt 0.9653 0.4417 0.0000
vt 0.9663 0.4416 0.0000
vt 0.9672 0.4718 0.0000
vt 0.9662 0.4719 0.0000
vt 0.9674 0.4414 0.0000
vt 0.9682 0.4717 0.0000
vt 0.9684 0.4410 0.0000
vt 0.9692 0.4714 0.0000
vt 0.9694 0.4405 0.0000
vt 0.9702 0.4711 0.0000
vt 0.9513 0.4411 0.0000
vt 0.9522 0.4406 0.0000
vt 0.9534 0.4714 0.0000
vt 0.9524 0.4717 0.0000
vt 0.9531 0.4401 0.0000
vt 0.9544 0.4711 0.0000
vt 0.9541 0.4397 0.0000
vt 0.9553 0.4709 0.0000
vt 0.9551 0.4394 0.0000
vt 0.9563 0.4707 0.0000
vt 0.9561 0.4393 0.0000
vt 0.9573 0.4707 0.0000
vt 0.9571 0.4393 0.0000
vt 0.9582 0.4707 0.0000
vt 0.9581 0.4395 0.0000
vt 0.9592 0.4708 0.0000
vt 0.9591 0.4398 0.0000
vt 0.9602 0.4709 0.0000
vt 0.9601 0.4402 0.0000
vt 0.9612 0.4711 0.0000
vt 0.9611 0.4406 0.0000
vt 0.9622 0.4714 0.0000
vt 0.9620 0.4410 0.0000
vt 0.9632 0.4716 0.0000
vt 0.9631 0.4414 0.0000
vt 0.9642 0.4718 0.0000
vt 0.9642 0.4416 0.0000
vt 0.9652 0.4719 0.0000
vt 0.9684 0.5061 0.0000
vt 0.9674 0.5061 0.0000
vt 0.9693 0.5060 0.0000
vt 0.9704 0.5060 0.0000
vt 0.9714 0.5059 0.0000
vt 0.9546 0.5064 0.0000
vt 0.9535 0.5065 0.0000
vt 0.9556 0.5063 0.0000
vt 0.9566 0.5062 0.0000
vt 0.9575 0.5062 0.0000
vt 0.9584 0.5061 0.0000
vt 0.9593 0.5061 0.0000
vt 0.9603 0.5061 0.0000
vt 0.9613 0.5061 0.0000
vt 0.9623 0.5061 0.0000
vt 0.9634 0.5061 0.0000
vt 0.9644 0.5062 0.0000
vt 0.9655 0.5062 0.0000
vt 0.9664 0.5062 0.0000
vt 0.9693 0.5381 0.0000
vt 0.9684 0.5381 0.0000
vt 0.9703 0.5382 0.0000
vt 0.9713 0.5384 0.0000
vt 0.9723 0.5386 0.0000
vt 0.9557 0.5394 0.0000
vt 0.9546 0.5392 0.0000
vt 0.9567 0.5396 0.0000
vt 0.9577 0.5397 0.0000
vt 0.9587 0.5398 0.0000
vt 0.9596 0.5398 0.0000
vt 0.9605 0.5398 0.0000
vt 0.9615 0.5396 0.0000
vt 0.9625 0.5394 0.0000
vt 0.9635 0.5391 0.0000
vt 0.9645 0.5388 0.0000
vt 0.9656 0.5385 0.0000
vt 0.9665 0.5383 0.0000
vt 0.9675 0.5382 0.0000
vt 0.1639 0.0118 0.0000
vt 0.1619 0.8478 0.0000
vt 0.1581 0.8486 0.0000
vt 0.1598 0.0118 0.0000
vt 0.1680 0.0118 0.0000
vt 0.1657 0.8482 0.0000
vt 0.1722 0.0118 0.0000
vt 0.1696 0.8495 0.0000
vt 0.1761 0.0118 1.0000
vt 0.1737 0.8514 0.0000
vt 0.1084 0.0118 0.0000
vt 0.1071 0.8511 0.0000
vt 0.1031 0.8511 0.0000
vt 0.1045 0.0118 1.0000
vt 0.1123 0.0118 0.0000
vt 0.1110 0.8511 0.0000
vt 0.1163 0.0118 0.0000
vt 0.1150 0.8511 0.0000
vt 0.1202 0.0118 0.0000
vt 0.1189 0.8511 0.0000
vt 0.1241 0.0118 0.0000
vt 0.1228 0.8511 0.0000
vt 0.1281 0.0118 0.0000
vt 0.1268 0.8511 0.0000
vt 0.1320 0.0118 0.0000
vt 0.1307 0.8511 0.0000
vt 0.1359 0.0118 0.0000
vt 0.1346 0.8511 0.0000
vt 0.1399 0.0118 0.0000
vt 0.1386 0.8511 0.0000
vt 0.1438 0.0118 0.0000
vt 0.1425 0.8511 0.0000
vt 0.1477 0.0118 0.0000
vt 0.1464 0.8510 0.0000
vt 0.1517 0.0118 0.0000
vt 0.1504 0.8510 0.0000
vt 0.1556 0.0118 0.0000
vt 0.1543 0.8510 0.0000
vt 0.1516 0.8549 0.0000
vt 0.2971 0.0097 0.0000
vt 0.2949 0.9266 0.0000
vt 0.2879 0.9286 0.0000
vt 0.2898 0.0097 0.0000
vt 0.3044 0.0097 0.0000
vt 0.3017 0.9259 0.0000
vt 0.3117 0.0098 0.0000
vt 0.3083 0.9271 0.0000
vt 0.3187 0.0098 1.0000
vt 0.3148 0.9309 0.0000
vt 0.1992 0.0098 0.0000
vt 0.1973 0.9318 0.0000
vt 0.1904 0.9318 0.0000
vt 0.1922 0.0098 1.0000
vt 0.2061 0.0098 0.0000
vt 0.2043 0.9318 0.0000
vt 0.2131 0.0098 0.0000
vt 0.2112 0.9318 0.0000
vt 0.2200 0.0098 0.0000
vt 0.2182 0.9318 0.0000
vt 0.2270 0.0098 0.0000
vt 0.2251 0.9317 0.0000
vt 0.2339 0.0097 0.0000
vt 0.2321 0.9317 0.0000
vt 0.2408 0.0097 0.0000
vt 0.2390 0.9317 0.0000
vt 0.2478 0.0097 0.0000
vt 0.2460 0.9317 0.0000
vt 0.2547 0.0097 0.0000
vt 0.2529 0.9317 0.0000
vt 0.2617 0.0097 0.0000
vt 0.2599 0.9317 0.0000
vt 0.2686 0.0097 0.0000
vt 0.2668 0.9317 0.0000
vt 0.2756 0.0097 0.0000
vt 0.2737 0.9317 0.0000
vt 0.2825 0.0097 0.0000
vt 0.2807 0.9317 0.0000
vt 0.3110 0.9666 0.0000
vt 0.3034 0.9695 0.0000
vt 0.2767 0.9388 0.0000
vt 0.8450 0.7705 0.0000
vt 0.8320 0.8107 0.0000
vt 0.8239 0.8079 0.0000
vt 0.8363 0.7677 0.0000
vt 0.8537 0.7735 0.0000
vt 0.8400 0.8137 0.0000
vt 0.8622 0.7768 0.0000
vt 0.8480 0.8170 0.0000
vt 0.8707 0.7802 1.0000
vt 0.8560 0.8206 0.0000
vt 0.7208 0.7401 0.0000
vt 0.7112 0.7823 0.0000
vt 0.7027 0.7797 0.0000
vt 0.7120 0.7377 1.0000
vt 0.7297 0.7425 0.0000
vt 0.7198 0.7848 0.0000
vt 0.7385 0.7449 0.0000
vt 0.7285 0.7873 0.0000
vt 0.7474 0.7472 0.0000
vt 0.7374 0.7896 0.0000
vt 0.7562 0.7493 0.0000
vt 0.7462 0.7918 0.0000
vt 0.7651 0.7513 0.0000
vt 0.7552 0.7938 0.0000
vt 0.7740 0.7533 0.0000
vt 0.7641 0.7956 0.0000
vt 0.7829 0.7551 0.0000
vt 0.7729 0.7972 0.0000
vt 0.7919 0.7569 0.0000
vt 0.7817 0.7987 0.0000
vt 0.8009 0.7587 0.0000
vt 0.7904 0.8002 0.0000
vt 0.8098 0.7607 0.0000
vt 0.7989 0.8018 0.0000
vt 0.8187 0.7628 0.0000
vt 0.8074 0.8036 0.0000
vt 0.8276 0.7651 0.0000
vt 0.8157 0.8056 0.0000
vt 0.8197 0.8490 0.0000
vt 0.8120 0.8462 0.0000
vt 0.8273 0.8522 0.0000
vt 0.8348 0.8558 0.0000
vt 0.8422 0.8597 0.0000
vt 0.7029 0.8237 0.0000
vt 0.6948 0.8208 0.0000
vt 0.7110 0.8267 0.0000
vt 0.7194 0.8295 0.0000
vt 0.7279 0.8320 0.0000
vt 0.7365 0.8341 0.0000
vt 0.7452 0.8359 0.0000
vt 0.7539 0.8373 0.0000
vt 0.7626 0.8383 0.0000
vt 0.7711 0.8392 0.0000
vt 0.7796 0.8400 0.0000
vt 0.7879 0.8411 0.0000
vt 0.7961 0.8424 0.0000
vt 0.8041 0.8441 0.0000
vt 0.8078 0.8863 0.0000
vt 0.8004 0.8835 0.0000
vt 0.8149 0.8896 0.0000
vt 0.8219 0.8934 0.0000
vt 0.8287 0.8977 0.0000
vt 0.6952 0.8644 0.0000
vt 0.6876 0.8611 0.0000
vt 0.7029 0.8678 0.0000
vt 0.7108 0.8710 0.0000
vt 0.7189 0.8737 0.0000
vt 0.7272 0.8757 0.0000
vt 0.7356 0.8773 0.0000
vt 0.7441 0.8782 0.0000
vt 0.7525 0.8786 0.0000
vt 0.7608 0.8788 0.0000
vt 0.7690 0.8790 0.0000
vt 0.7770 0.8794 0.0000
vt 0.7850 0.8802 0.0000
vt 0.7928 0.8816 0.0000
vt 0.7962 0.9227 0.0000
vt 0.7891 0.9200 0.0000
vt 0.8029 0.9260 0.0000
vt 0.8093 0.9300 0.0000
vt 0.8153 0.9345 0.0000
vt 0.6879 0.9048 0.0000
vt 0.6807 0.9010 0.0000
vt 0.6952 0.9085 0.0000
vt 0.7027 0.9119 0.0000
vt 0.7105 0.9147 0.0000
vt 0.7185 0.9167 0.0000
vt 0.7267 0.9180 0.0000
vt 0.7349 0.9185 0.0000
vt 0.7430 0.9184 0.0000
vt 0.7510 0.9179 0.0000
vt 0.7589 0.9174 0.0000
vt 0.7666 0.9171 0.0000
vt 0.7743 0.9173 0.0000
vt 0.7818 0.9183 0.0000
vt 0.7864 0.9569 0.0000
vt 0.7798 0.9553 0.0000
vt 0.7922 0.9590 0.0000
vt 0.7970 0.9613 0.0000
vt 0.8009 0.9670 0.0000
vt 0.6813 0.9452 0.0000
vt 0.6744 0.9413 0.0000
vt 0.6883 0.9490 0.0000
vt 0.6955 0.9523 0.0000
vt 0.7029 0.9551 0.0000
vt 0.7106 0.9570 0.0000
vt 0.7184 0.9580 0.0000
vt 0.7263 0.9582 0.0000
vt 0.7341 0.9577 0.0000
vt 0.7419 0.9568 0.0000
vt 0.7496 0.9557 0.0000
vt 0.7574 0.9549 0.0000
vt 0.7651 0.9545 0.0000
vt 0.7727 0.9548 0.0000
vt 0.7752 0.9947 0.0000
vt 0.7684 0.9927 0.0000
vt 0.7662 0.9576 0.0000
vt 0.6665 0.7741 0.0000
vt 0.6586 0.7760 0.0000
vt 0.6630 0.7013 0.0000
vt 0.6718 0.7000 0.0000
vt 0.6744 0.7728 0.0000
vt 0.6805 0.6991 0.0000
vt 0.6824 0.7722 0.0000
vt 0.6893 0.6986 0.0000
vt 0.6904 0.7726 0.0000
vt 0.6981 0.6987 1.0000
vt 0.5479 0.6985 0.0000
vt 0.5548 0.7721 0.0000
vt 0.5468 0.7727 0.0000
vt 0.5391 0.6987 1.0000
vt 0.5567 0.6989 0.0000
vt 0.5628 0.7724 0.0000
vt 0.5654 0.6996 0.0000
vt 0.5707 0.7734 0.0000
vt 0.5741 0.7009 0.0000
vt 0.5785 0.7751 0.0000
vt 0.5828 0.7024 0.0000
vt 0.5863 0.7772 0.0000
vt 0.5915 0.7039 0.0000
vt 0.5941 0.7795 0.0000
vt 0.6004 0.7053 0.0000
vt 0.6021 0.7815 0.0000
vt 0.6094 0.7063 0.0000
vt 0.6102 0.7829 0.0000
vt 0.6185 0.7066 0.0000
vt 0.6185 0.7834 0.0000
vt 0.6268 0.7831 0.0000
vt 0.6276 0.7064 0.0000
vt 0.6349 0.7820 0.0000
vt 0.6366 0.7056 0.0000
vt 0.6430 0.7802 0.0000
vt 0.6455 0.7043 0.0000
vt 0.6508 0.7781 0.0000
vt 0.6543 0.7029 0.0000
vt 0.6561 0.9972 0.0000
vt 0.6513 0.9979 0.0000
vt 0.6392 0.9760 0.0000
vt 0.6424 0.9723 0.0000
vt 0.6506 0.9710 0.0000
vt 0.6466 0.9713 0.0000
vt 0.6478 0.9131 0.0000
vt 0.6536 0.9106 0.0000
vt 0.6535 0.8467 0.0000
vt 0.6603 0.8443 0.0000
vt 0.6620 0.5509 0.0000
vt 0.6707 0.5505 0.0000
vt 0.6729 0.6248 0.0000
vt 0.6641 0.6255 0.0000
vt 0.6545 0.9708 0.0000
vt 0.6599 0.9087 0.0000
vt 0.6673 0.8426 0.0000
vt 0.6795 0.5501 0.0000
vt 0.6817 0.6242 0.0000
vt 0.6589 0.9709 0.0000
vt 0.6664 0.9078 0.0000
vt 0.6744 0.8418 0.0000
vt 0.6883 0.5498 0.0000
vt 0.6904 0.6238 0.0000
vt 0.6640 0.9729 0.0000
vt 0.6729 0.9079 0.0000
vt 0.6816 0.8421 0.0000
vt 0.6970 0.5495 0.0000
vt 0.6991 0.6235 0.0000
vt 0.5709 0.9073 0.0000
vt 0.5793 0.9692 0.0000
vt 0.5733 0.9696 0.0000
vt 0.5645 0.9078 0.0000
vt 0.5629 0.8417 0.0000
vt 0.5557 0.8422 0.0000
vt 0.5401 0.5495 0.0000
vt 0.5488 0.5498 0.0000
vt 0.5468 0.6237 0.0000
vt 0.5380 0.6235 0.0000
vt 0.5772 0.9079 0.0000
vt 0.5852 0.9698 0.0000
vt 0.5700 0.8421 0.0000
vt 0.5576 0.5501 0.0000
vt 0.5555 0.6241 0.0000
vt 0.5833 0.9094 0.0000
vt 0.5909 0.9714 0.0000
vt 0.5770 0.8434 0.0000
vt 0.5663 0.5505 0.0000
vt 0.5643 0.6247 0.0000
vt 0.5891 0.9116 0.0000
vt 0.5962 0.9736 0.0000
vt 0.5838 0.8454 0.0000
vt 0.5751 0.5509 0.0000
vt 0.5731 0.6253 0.0000
vt 0.5948 0.9144 0.0000
vt 0.6013 0.9761 0.0000
vt 0.5905 0.8480 0.0000
vt 0.5838 0.5513 0.0000
vt 0.5820 0.6261 0.0000
vt 0.6005 0.9173 0.0000
vt 0.6064 0.9784 0.0000
vt 0.5972 0.8508 0.0000
vt 0.5926 0.5516 0.0000
vt 0.5909 0.6268 0.0000
vt 0.6064 0.9198 0.0000
vt 0.6116 0.9802 0.0000
vt 0.6041 0.8532 0.0000
vt 0.6012 0.5519 0.0000
vt 0.6000 0.6274 0.0000
vt 0.6126 0.9215 0.0000
vt 0.6170 0.9812 0.0000
vt 0.6112 0.8549 0.0000
vt 0.6099 0.5521 0.0000
vt 0.6093 0.6278 0.0000
vt 0.6189 0.9221 0.0000
vt 0.6226 0.9812 0.0000
vt 0.6185 0.8555 0.0000
vt 0.6185 0.5522 0.0000
vt 0.6185 0.6278 0.0000
vt 0.6281 0.9802 0.0000
vt 0.6251 0.9217 0.0000
vt 0.6259 0.8552 0.0000
vt 0.6272 0.5521 0.0000
vt 0.6278 0.6278 0.0000
vt 0.6332 0.9783 0.0000
vt 0.6311 0.9203 0.0000
vt 0.6330 0.8538 0.0000
vt 0.6358 0.5520 0.0000
vt 0.6370 0.6275 0.0000
vt 0.6380 0.9755 0.0000
vt 0.6368 0.9183 0.0000
vt 0.6400 0.8518 0.0000
vt 0.6445 0.5517 0.0000
vt 0.6461 0.6269 0.0000
vt 0.6422 0.9158 0.0000
vt 0.6467 0.8493 0.0000
vt 0.6532 0.5513 0.0000
vt 0.6552 0.6262 0.0000
vt 0.9254 0.5527 0.0000
vt 0.9399 0.5530 0.0000
vt 0.9392 0.5858 0.0000
vt 0.9237 0.5854 0.0000
vt 0.9545 0.5525 0.0000
vt 0.9547 0.5851 0.0000
vt 0.9692 0.5514 0.0000
vt 0.9698 0.5838 0.0000
vt 0.9839 0.5500 0.0000
vt 0.9846 0.5820 1.0000
vt 0.7225 0.5506 0.0000
vt 0.7367 0.5466 0.0000
vt 0.7426 0.5776 0.0000
vt 0.7289 0.5820 1.0000
vt 0.7510 0.5430 0.0000
vt 0.7561 0.5737 0.0000
vt 0.7655 0.5401 0.0000
vt 0.7694 0.5705 0.0000
vt 0.7801 0.5380 0.0000
vt 0.7827 0.5683 0.0000
vt 0.7946 0.5369 0.0000
vt 0.7960 0.5671 0.0000
vt 0.8092 0.5367 0.0000
vt 0.8093 0.5670 0.0000
vt 0.8239 0.5375 0.0000
vt 0.8226 0.5681 0.0000
vt 0.8385 0.5391 0.0000
vt 0.8361 0.5700 0.0000
vt 0.8530 0.5415 0.0000
vt 0.8498 0.5727 0.0000
vt 0.8675 0.5442 0.0000
vt 0.8638 0.5758 0.0000
vt 0.8819 0.5470 0.0000
vt 0.8782 0.5790 0.0000
vt 0.8964 0.5495 0.0000
vt 0.8930 0.5819 0.0000
vt 0.9109 0.5515 0.0000
vt 0.9082 0.5841 0.0000
vt 0.9373 0.6204 0.0000
vt 0.9218 0.6201 0.0000
vt 0.9527 0.6193 0.0000
vt 0.9678 0.6172 0.0000
vt 0.9824 0.6145 0.0000
vt 0.7462 0.6088 0.0000
vt 0.7331 0.6142 0.0000
vt 0.7591 0.6039 0.0000
vt 0.7718 0.6000 0.0000
vt 0.7845 0.5973 0.0000
vt 0.7973 0.5959 0.0000
vt 0.8102 0.5961 0.0000
vt 0.8231 0.5975 0.0000
vt 0.8360 0.6002 0.0000
vt 0.8492 0.6038 0.0000
vt 0.8627 0.6079 0.0000
vt 0.8766 0.6121 0.0000
vt 0.8912 0.6159 0.0000
vt 0.9063 0.6186 0.0000
vt 0.9344 0.6554 0.0000
vt 0.9197 0.6554 0.0000
vt 0.9492 0.6541 0.0000
vt 0.9637 0.6516 0.0000
vt 0.9780 0.6482 0.0000
vt 0.7485 0.6411 0.0000
vt 0.7359 0.6477 0.0000
vt 0.7609 0.6352 0.0000
vt 0.7733 0.6304 0.0000
vt 0.7860 0.6271 0.0000
vt 0.7988 0.6256 0.0000
vt 0.8116 0.6258 0.0000
vt 0.8245 0.6278 0.0000
vt 0.8373 0.6312 0.0000
vt 0.8501 0.6359 0.0000
vt 0.8631 0.6411 0.0000
vt 0.8766 0.6463 0.0000
vt 0.8906 0.6508 0.0000
vt 0.9050 0.6539 0.0000
vt 0.9308 0.6887 0.0000
vt 0.9181 0.6895 0.0000
vt 0.9434 0.6876 0.0000
vt 0.9568 0.6862 0.0000
vt 0.9705 0.6835 0.0000
vt 0.7495 0.6758 0.0000
vt 0.7373 0.6833 0.0000
vt 0.7618 0.6688 0.0000
vt 0.7743 0.6632 0.0000
vt 0.7872 0.6594 0.0000
vt 0.8005 0.6576 0.0000
vt 0.8138 0.6580 0.0000
vt 0.8270 0.6603 0.0000
vt 0.8399 0.6645 0.0000
vt 0.8526 0.6700 0.0000
vt 0.8653 0.6760 0.0000
vt 0.8783 0.6818 0.0000
vt 0.8916 0.6863 0.0000
vt 0.9051 0.6889 0.0000
vt 0.9293 0.7133 0.0000
vt 0.9216 0.7172 0.0000
vt 0.9367 0.7117 0.0000
vt 0.9447 0.7124 0.0000
vt 0.9550 0.7169 0.0000
vt 0.7485 0.7139 0.0000
vt 0.7362 0.7218 0.0000
vt 0.7610 0.7064 0.0000
vt 0.7743 0.7003 0.0000
vt 0.7882 0.6961 0.0000
vt 0.8026 0.6941 0.0000
vt 0.8171 0.6943 0.0000
vt 0.8313 0.6968 0.0000
vt 0.8450 0.7011 0.0000
vt 0.8581 0.7068 0.0000
vt 0.8708 0.7128 0.0000
vt 0.8836 0.7183 0.0000
vt 0.8968 0.7222 0.0000
vt 0.9104 0.7239 0.0000
vt 0.9618 0.7251 0.0000
vt 0.9651 0.7349 0.0000
vt 0.9066 0.7335 0.0000
vt 0.9176 0.5183 0.0000
vt 0.9087 0.5183 0.0000
vt 0.9087 0.2678 0.0000
vt 0.9176 0.2678 0.0000
vt 0.7236 0.5261 0.0000
vt 0.5466 0.5261 0.0000
vt 0.5466 0.2584 0.0000
vt 0.7236 0.2584 0.0000
vt 0.7389 0.5183 0.0000
vt 0.9087 0.5261 0.0000
vt 0.7389 0.2678 0.0000
vt 0.9087 0.2584 0.0000
vt 0.5592 0.0150 0.0000
vt 0.5592 0.0107 0.0000
vt 0.6821 0.0107 0.0000
vt 0.6821 0.0150 0.0000
vt 0.6821 0.2243 0.0000
vt 0.5592 0.2243 0.0000
vt 0.5592 0.2204 0.0000
vt 0.6821 0.2204 0.0000
vt 0.6870 0.0150 0.0000
vt 0.6870 0.2204 0.0000
vt 0.7870 0.0150 0.0000
vt 0.7881 0.2204 0.0000
vt 0.5548 0.2204 0.0000
vt 0.5548 0.0150 0.0000
vt 0.4690 0.9218 0.0000
vt 0.4856 0.9546 0.0000
vt 0.4979 0.9595 0.0000
vt 0.5113 0.9596 0.0000
vt 0.5237 0.9546 0.0000
vt 0.5330 0.9460 0.0000
vt 0.5376 0.9095 0.0000
vt 0.5389 0.9346 0.0000
vt 0.5405 0.9220 0.0000
vt 0.9648 0.7452 0.0000
vt 0.9063 0.7438 0.0000
vt 0.9610 0.7548 0.0000
vt 0.9096 0.7536 0.0000
vt 0.9542 0.7626 0.0000
vt 0.9160 0.7616 0.0000
vt 0.9451 0.7675 0.0000
vt 0.9248 0.7670 0.0000
vt 0.9349 0.7690 0.0000
vt 0.6422 0.9943 0.0000
vt 0.6391 0.9904 0.0000
vt 0.6375 0.9856 0.0000
vt 0.6375 0.9806 0.0000
vt 0.6464 0.9969 0.0000
vt 0.6604 0.9948 0.0000
vt 0.6637 0.9909 0.0000
vt 0.6657 0.9859 0.0000
vt 0.6658 0.9800 0.0000
vt 0.7588 0.9826 0.0000
vt 0.7572 0.9758 0.0000
vt 0.7580 0.9688 0.0000
vt 0.7611 0.9625 0.0000
vt 0.7627 0.9885 0.0000
vt 0.7824 0.9942 0.0000
vt 0.7892 0.9912 0.0000
vt 0.7951 0.9856 0.0000
vt 0.7995 0.9769 0.0000
vt 0.1506 0.8594 0.0000
vt 0.1514 0.8641 0.0000
vt 0.1759 0.8553 0.0000
vt 0.1536 0.8680 0.0000
vt 0.1767 0.8598 0.0000
vt 0.1571 0.8709 0.0000
vt 0.1758 0.8642 0.0000
vt 0.1613 0.8725 0.0000
vt 0.1736 0.8681 0.0000
vt 0.1658 0.8725 0.0000
vt 0.1701 0.8710 0.0000
vt 0.0654 0.9613 0.0000
vt 0.0656 0.9649 0.0000
vt 0.0846 0.9604 0.0000
vt 0.0670 0.9680 0.0000
vt 0.0848 0.9637 0.0000
vt 0.0693 0.9704 0.0000
vt 0.0838 0.9670 0.0000
vt 0.0723 0.9719 0.0000
vt 0.0818 0.9697 0.0000
vt 0.0757 0.9723 0.0000
vt 0.0790 0.9716 0.0000
vt 0.3199 0.9373 0.0000
vt 0.3222 0.9454 0.0000
vt 0.3212 0.9537 0.0000
vt 0.3172 0.9612 0.0000
vt 0.2953 0.9696 0.0000
vt 0.2755 0.9469 0.0000
vt 0.2876 0.9670 0.0000
vt 0.2770 0.9549 0.0000
vt 0.2812 0.9619 0.0000
# 832 texture coords

o Cylinder001
g Cylinder001
usemtl wires_wire_087225143
s 8
f 1/1/1 2/2/2 3/3/3 4/4/4 
f 5/5/5 6/6/6 2/2/2 1/1/1 
f 7/7/7 8/8/8 6/6/6 5/5/5 
f 9/9/9 10/10/10 8/8/8 7/7/7 
f 11/11/11 12/12/12 10/13/10 9/14/9 
f 13/15/13 14/16/14 12/12/12 11/11/11 
f 15/17/15 16/18/16 14/16/14 13/15/13 
f 17/19/17 18/20/18 16/18/16 15/17/15 
f 19/21/19 20/22/20 18/20/18 17/19/17 
f 21/23/21 22/24/22 20/22/20 19/21/19 
f 23/25/23 24/26/24 22/24/22 21/23/21 
f 25/27/25 26/28/26 24/26/24 23/25/23 
f 27/29/27 28/30/28 26/28/26 25/27/25 
f 29/31/29 30/32/30 28/30/28 27/29/27 
f 31/33/31 32/34/32 30/32/30 29/31/29 
f 33/35/33 34/36/34 32/34/32 31/33/31 
f 35/37/35 36/38/36 34/36/34 33/35/33 
f 4/4/4 3/3/3 36/38/36 35/37/35 
s 1
f 37/39/37 38/40/38 39/41/39 40/42/40 
s 8
f 41/43/41 42/44/42 3/3/3 2/2/2 
f 43/45/43 41/43/41 2/2/2 6/6/6 
f 44/46/44 43/45/43 6/6/6 8/8/8 
f 45/47/45 44/46/44 8/8/8 10/10/10 
f 46/48/46 45/49/45 10/13/10 12/12/12 
f 47/50/47 46/48/46 12/12/12 14/16/14 
f 48/51/48 47/50/47 14/16/14 16/18/16 
f 49/52/49 48/51/48 16/18/16 18/20/18 
f 50/53/50 49/52/49 18/20/18 20/22/20 
f 22/24/22 51/54/51 50/53/50 20/22/20 
f 24/26/24 52/55/52 51/54/51 22/24/22 
f 26/28/26 53/56/53 52/55/52 24/26/24 
f 28/30/28 54/57/54 53/56/53 26/28/26 
f 30/32/30 55/58/55 54/57/54 28/30/28 
f 32/34/32 56/59/56 55/58/55 30/32/30 
f 34/36/34 57/60/57 56/59/56 32/34/32 
f 36/38/36 58/61/58 57/60/57 34/36/34 
f 3/3/3 42/44/42 58/61/58 36/38/36 
f 41/43/41 37/39/37 59/62/59 42/44/42 
f 43/45/43 38/40/38 37/39/37 41/43/41 
f 44/46/44 60/63/60 38/40/38 43/45/43 
f 45/47/45 61/64/61 60/63/60 44/46/44 
f 46/48/46 62/65/62 61/66/61 45/49/45 
f 47/50/47 63/67/63 62/65/62 46/48/46 
f 48/51/48 64/68/64 63/67/63 47/50/47 
f 49/52/49 65/69/65 64/68/64 48/51/48 
f 50/53/50 66/70/66 65/69/65 49/52/49 
f 67/71/67 66/70/66 50/53/50 51/54/51 
f 68/72/68 67/71/67 51/54/51 52/55/52 
f 69/73/69 68/72/68 52/55/52 53/56/53 
f 70/74/70 69/73/69 53/56/53 54/57/54 
f 71/75/71 70/74/70 54/57/54 55/58/55 
f 72/76/72 71/75/71 55/58/55 56/59/56 
f 39/77/39 72/76/72 56/59/56 57/60/57 
f 40/42/40 39/77/39 57/60/57 58/61/58 
f 59/62/59 40/42/40 58/61/58 42/44/42 
f 73/78/73 74/79/74 75/80/75 76/81/76 
f 77/82/77 78/83/78 74/79/74 73/78/73 
f 79/84/79 80/85/80 78/83/78 77/82/77 
f 81/86/81 82/87/82 80/85/80 79/84/79 
f 83/88/83 84/89/84 82/90/82 81/91/81 
f 85/92/85 86/93/86 84/89/84 83/88/83 
f 87/94/87 88/95/88 86/93/86 85/92/85 
f 89/96/89 90/97/90 88/95/88 87/94/87 
f 91/98/91 92/99/92 90/97/90 89/96/89 
f 93/100/93 94/101/94 92/99/92 91/98/91 
f 95/102/95 96/103/96 94/101/94 93/100/93 
f 97/104/97 98/105/98 96/103/96 95/102/95 
f 99/106/99 100/107/100 98/105/98 97/104/97 
f 101/108/101 102/109/102 100/107/100 99/106/99 
f 103/110/103 104/111/104 102/109/102 101/108/101 
f 105/112/105 106/113/106 104/111/104 103/110/103 
f 107/114/107 108/115/108 106/113/106 105/112/105 
f 76/81/76 75/80/75 108/115/108 107/114/107 
s 1
f 100/116/100 102/117/102 106/118/106 108/115/108 
s 8
f 109/119/109 110/120/110 111/121/111 112/122/112 
f 113/123/113 114/124/114 110/120/110 109/119/109 
f 115/125/115 116/126/116 114/124/114 113/123/113 
f 117/127/117 118/128/118 116/126/116 115/125/115 
f 119/129/119 120/130/120 118/131/118 117/132/117 
f 121/133/121 122/134/122 120/130/120 119/129/119 
f 123/135/123 124/136/124 122/134/122 121/133/121 
f 125/137/125 126/138/126 124/136/124 123/135/123 
f 127/139/127 128/140/128 126/138/126 125/137/125 
f 129/141/129 130/142/130 128/140/128 127/139/127 
f 131/143/131 132/144/132 130/142/130 129/141/129 
f 133/145/133 134/146/134 132/144/132 131/143/131 
f 135/147/135 136/148/136 134/146/134 133/145/133 
f 137/149/137 138/150/138 136/148/136 135/147/135 
f 139/151/139 140/152/140 138/150/138 137/149/137 
f 141/153/141 142/154/142 140/152/140 139/151/139 
f 143/155/143 144/156/144 142/154/142 141/153/141 
f 112/122/112 111/121/111 144/156/144 143/155/143 
f 110/120/110 145/157/145 146/158/146 111/121/111 
f 114/124/114 147/159/147 145/157/145 110/120/110 
f 116/126/116 148/160/148 147/159/147 114/124/114 
f 118/128/118 149/161/149 148/160/148 116/126/116 
f 120/130/120 150/162/150 149/163/149 118/131/118 
f 122/134/122 151/164/151 150/162/150 120/130/120 
f 124/136/124 152/165/152 151/164/151 122/134/122 
f 126/138/126 153/166/153 152/165/152 124/136/124 
f 128/140/128 154/167/154 153/166/153 126/138/126 
f 130/142/130 155/168/155 154/167/154 128/140/128 
f 132/144/132 156/169/156 155/168/155 130/142/130 
f 134/146/134 157/170/157 156/169/156 132/144/132 
f 136/148/136 158/171/158 157/170/157 134/146/134 
f 138/150/138 159/172/159 158/171/158 136/148/136 
f 140/152/140 160/173/160 159/172/159 138/150/138 
f 142/154/142 161/174/161 160/173/160 140/152/140 
f 144/156/144 162/175/162 161/174/161 142/154/142 
f 111/121/111 146/158/146 162/175/162 144/156/144 
f 145/157/145 163/176/163 164/177/164 146/158/146 
f 147/159/147 165/178/165 163/176/163 145/157/145 
f 148/160/148 166/179/166 165/178/165 147/159/147 
f 149/161/149 167/180/167 166/179/166 148/160/148 
f 150/162/150 168/181/168 167/182/167 149/163/149 
f 151/164/151 169/183/169 168/181/168 150/162/150 
f 152/165/152 170/184/170 169/183/169 151/164/151 
f 153/166/153 171/185/171 170/184/170 152/165/152 
f 154/167/154 172/186/172 171/185/171 153/166/153 
f 155/168/155 173/187/173 172/186/172 154/167/154 
f 156/169/156 174/188/174 173/187/173 155/168/155 
f 157/170/157 175/189/175 174/188/174 156/169/156 
f 158/171/158 176/190/176 175/189/175 157/170/157 
f 159/172/159 177/191/177 176/190/176 158/171/158 
f 160/173/160 178/192/178 177/191/177 159/172/159 
f 161/174/161 179/193/179 178/192/178 160/173/160 
f 162/175/162 180/194/180 179/193/179 161/174/161 
f 146/158/146 164/177/164 180/194/180 162/175/162 
f 163/176/163 181/195/181 182/196/182 164/177/164 
f 165/178/165 183/197/183 181/195/181 163/176/163 
f 166/179/166 184/198/184 183/197/183 165/178/165 
f 167/180/167 185/199/185 184/198/184 166/179/166 
f 168/181/168 186/200/186 185/201/185 167/182/167 
f 169/183/169 187/202/187 186/200/186 168/181/168 
f 170/184/170 188/203/188 187/202/187 169/183/169 
f 171/185/171 189/204/189 188/203/188 170/184/170 
f 172/186/172 190/205/190 189/204/189 171/185/171 
f 173/187/173 191/206/191 190/205/190 172/186/172 
f 174/188/174 192/207/192 191/206/191 173/187/173 
f 174/188/174 175/189/175 193/208/193 192/207/192 
f 175/189/175 176/190/176 194/209/194 193/208/193 
f 176/190/176 177/191/177 195/210/195 194/209/194 
f 177/191/177 178/192/178 196/211/196 195/210/195 
f 178/192/178 179/193/179 197/212/197 196/211/196 
f 179/193/179 180/194/180 198/213/198 197/212/197 
f 164/177/164 182/196/182 198/213/198 180/194/180 
f 199/214/199 200/215/200 201/216/201 202/217/202 
f 200/215/200 203/218/203 204/219/204 201/216/201 
f 203/218/203 205/220/205 206/221/206 204/219/204 
f 205/220/205 207/222/207 208/223/208 206/221/206 
f 207/224/207 209/225/209 210/226/210 208/227/208 
f 209/225/209 211/228/211 212/229/212 210/226/210 
f 211/228/211 213/230/213 214/231/214 212/229/212 
f 213/230/213 215/232/215 216/233/216 214/231/214 
f 217/234/217 218/235/218 216/233/216 215/232/215 
f 219/236/219 220/237/220 218/235/218 217/234/217 
f 221/238/221 222/239/222 220/237/220 219/236/219 
f 223/240/223 224/241/224 222/239/222 221/238/221 
f 225/242/225 226/243/226 224/241/224 223/240/223 
f 227/244/227 228/245/228 226/243/226 225/242/225 
f 229/246/229 230/247/230 228/245/228 227/244/227 
f 231/248/231 232/249/232 230/247/230 229/246/229 
f 233/250/233 234/251/234 232/249/232 231/248/231 
f 199/214/199 202/217/202 234/251/234 233/250/233 
f 201/216/201 235/252/235 236/253/236 202/217/202 
f 204/219/204 237/254/237 235/252/235 201/216/201 
f 204/219/204 206/221/206 238/255/238 237/254/237 
f 206/221/206 208/223/208 239/256/239 238/255/238 
f 208/227/208 210/226/210 240/257/240 239/258/239 
f 210/226/210 212/229/212 241/259/241 240/257/240 
f 212/229/212 214/231/214 242/260/242 241/259/241 
f 216/233/216 243/261/243 242/260/242 214/231/214 
f 218/235/218 244/262/244 243/261/243 216/233/216 
f 220/237/220 245/263/245 244/262/244 218/235/218 
f 222/239/222 246/264/246 245/263/245 220/237/220 
f 224/241/224 247/265/247 246/264/246 222/239/222 
f 226/243/226 248/266/248 247/265/247 224/241/224 
f 228/245/228 249/267/249 248/266/248 226/243/226 
f 230/247/230 250/268/250 249/267/249 228/245/228 
f 232/249/232 251/269/251 250/268/250 230/247/230 
f 234/251/234 252/270/252 251/269/251 232/249/232 
f 202/217/202 236/253/236 252/270/252 234/251/234 
f 235/252/235 253/271/253 254/272/254 236/253/236 
f 237/254/237 255/273/255 253/271/253 235/252/235 
f 238/255/238 256/274/256 255/273/255 237/254/237 
f 239/256/239 257/275/257 256/274/256 238/255/238 
f 240/257/240 258/276/258 257/277/257 239/258/239 
f 241/259/241 259/278/259 258/276/258 240/257/240 
f 242/260/242 260/279/260 259/278/259 241/259/241 
f 243/261/243 261/280/261 260/279/260 242/260/242 
f 244/262/244 262/281/262 261/280/261 243/261/243 
f 245/263/245 263/282/263 262/281/262 244/262/244 
f 246/264/246 264/283/264 263/282/263 245/263/245 
f 247/265/247 265/284/265 264/283/264 246/264/246 
f 248/266/248 266/285/266 265/284/265 247/265/247 
f 249/267/249 267/286/267 266/285/266 248/266/248 
f 250/268/250 268/287/268 267/286/267 249/267/249 
f 251/269/251 269/288/269 268/287/268 250/268/250 
f 252/270/252 270/289/270 269/288/269 251/269/251 
f 236/253/236 254/272/254 270/289/270 252/270/252 
f 200/215/200 199/214/199 182/196/182 181/195/181 
f 203/218/203 200/215/200 181/195/181 183/197/183 
f 205/220/205 203/218/203 183/197/183 184/198/184 
f 207/222/207 205/220/205 184/198/184 185/199/185 
f 209/225/209 207/224/207 185/201/185 186/200/186 
f 211/228/211 209/225/209 186/200/186 187/202/187 
f 213/230/213 211/228/211 187/202/187 188/203/188 
f 215/232/215 213/230/213 188/203/188 189/204/189 
f 217/234/217 215/232/215 189/204/189 190/205/190 
f 219/236/219 217/234/217 190/205/190 191/206/191 
f 192/207/192 221/238/221 219/236/219 191/206/191 
f 193/208/193 223/240/223 221/238/221 192/207/192 
f 194/209/194 225/242/225 223/240/223 193/208/193 
f 195/210/195 227/244/227 225/242/225 194/209/194 
f 196/211/196 229/246/229 227/244/227 195/210/195 
f 197/212/197 231/248/231 229/246/229 196/211/196 
f 198/213/198 233/250/233 231/248/231 197/212/197 
f 182/196/182 199/214/199 233/250/233 198/213/198 
f 271/290/73 272/291/74 273/292/75 274/293/76 
f 275/294/77 276/295/78 272/291/74 271/290/73 
f 277/296/79 278/297/80 276/295/78 275/294/77 
f 279/298/81 280/299/82 278/297/80 277/296/79 
f 281/300/83 282/301/84 280/302/82 279/303/81 
f 283/304/85 284/305/86 282/301/84 281/300/83 
f 285/306/87 286/307/88 284/305/86 283/304/85 
f 287/308/89 288/309/271 286/307/88 285/306/87 
f 289/310/272 290/311/273 288/309/271 287/308/89 
f 291/312/93 292/313/274 290/311/273 289/310/272 
f 293/314/95 294/315/275 292/313/274 291/312/93 
f 295/316/97 296/317/98 294/315/275 293/314/95 
f 297/318/99 298/319/100 296/317/98 295/316/97 
f 299/320/101 300/321/102 298/319/100 297/318/99 
f 301/322/103 302/323/104 300/321/102 299/320/101 
f 303/324/276 304/325/277 302/323/104 301/322/103 
f 305/326/107 306/327/108 304/325/277 303/324/276 
f 274/293/76 273/292/75 306/327/108 305/326/107 
s 1
f 272/291/74 276/295/78 304/328/277 306/327/108 
s 8
f 307/329/73 308/330/278 309/331/279 310/332/280 
f 311/333/77 312/334/78 308/330/278 307/329/73 
f 313/335/79 314/336/80 312/334/78 311/333/77 
f 315/337/81 316/338/82 314/336/80 313/335/79 
f 317/339/83 318/340/281 316/341/82 315/342/81 
f 319/343/282 320/344/283 318/340/281 317/339/83 
f 321/345/87 322/346/284 320/344/283 319/343/282 
f 323/347/89 324/348/271 322/346/284 321/345/87 
f 325/349/285 326/350/273 324/348/271 323/347/89 
f 327/351/93 328/352/274 326/350/273 325/349/285 
f 329/353/95 330/354/96 328/352/274 327/351/93 
f 331/355/97 332/356/98 330/354/96 329/353/95 
f 333/357/99 334/358/100 332/356/98 331/355/97 
f 335/359/101 336/360/102 334/358/100 333/357/99 
f 337/361/103 338/362/104 336/360/102 335/359/101 
f 339/363/105 340/364/106 338/362/104 337/361/103 
f 341/365/107 342/366/286 340/364/106 339/363/105 
f 310/332/280 309/331/279 342/366/286 341/365/107 
s 1
f 326/367/273 328/368/274 340/369/106 342/366/286 
s 8
f 343/370/287 344/371/288 345/372/289 346/373/290 
f 347/374/291 348/375/292 344/371/288 343/370/287 
f 349/376/293 350/377/294 348/375/292 347/374/291 
f 351/378/295 352/379/296 350/377/294 349/376/293 
f 353/380/297 354/381/298 352/382/296 351/383/295 
f 355/384/299 356/385/300 354/381/298 353/380/297 
f 357/386/301 358/387/302 356/385/300 355/384/299 
f 359/388/303 360/389/304 358/387/302 357/386/301 
f 361/390/305 362/391/306 360/389/304 359/388/303 
f 363/392/307 364/393/308 362/391/306 361/390/305 
f 363/392/307 365/394/309 366/395/310 364/393/308 
f 365/394/309 367/396/311 368/397/312 366/395/310 
f 367/396/311 369/398/313 370/399/314 368/397/312 
f 369/398/313 371/400/315 372/401/316 370/399/314 
f 371/400/315 373/402/317 374/403/318 372/401/316 
f 373/402/317 375/404/319 376/405/320 374/403/318 
f 375/404/319 377/406/321 378/407/322 376/405/320 
f 346/373/290 345/372/289 378/407/322 377/406/321 
f 344/371/288 379/408/323 380/409/324 345/372/289 
f 348/375/292 381/410/325 379/408/323 344/371/288 
f 350/377/294 382/411/326 381/410/325 348/375/292 
f 352/379/296 383/412/327 382/411/326 350/377/294 
f 354/381/298 384/413/328 383/414/327 352/382/296 
f 356/385/300 385/415/329 384/413/328 354/381/298 
f 358/387/302 386/416/330 385/415/329 356/385/300 
f 360/389/304 387/417/331 386/416/330 358/387/302 
f 362/391/306 388/418/332 387/417/331 360/389/304 
f 362/391/306 364/393/308 389/419/333 388/418/332 
f 364/393/308 366/395/310 390/420/334 389/419/333 
f 366/395/310 368/397/312 391/421/335 390/420/334 
f 368/397/312 370/399/314 392/422/336 391/421/335 
f 370/399/314 372/401/316 393/423/337 392/422/336 
f 372/401/316 374/403/318 394/424/338 393/423/337 
f 374/403/318 376/405/320 395/425/339 394/424/338 
f 376/405/320 378/407/322 396/426/340 395/425/339 
f 378/407/322 345/372/289 380/409/324 396/426/340 
f 379/408/323 397/427/341 398/428/342 380/409/324 
f 381/410/325 399/429/343 397/427/341 379/408/323 
f 382/411/326 400/430/344 399/429/343 381/410/325 
f 383/412/327 401/431/345 400/430/344 382/411/326 
f 384/413/328 402/432/346 401/433/345 383/414/327 
f 385/415/329 403/434/347 402/432/346 384/413/328 
f 386/416/330 404/435/348 403/434/347 385/415/329 
f 387/417/331 405/436/349 404/435/348 386/416/330 
f 388/418/332 406/437/350 405/436/349 387/417/331 
f 388/418/332 389/419/333 407/438/351 406/437/350 
f 389/419/333 390/420/334 408/439/352 407/438/351 
f 390/420/334 391/421/335 409/440/353 408/439/352 
f 391/421/335 392/422/336 410/441/354 409/440/353 
f 392/422/336 393/423/337 411/442/355 410/441/354 
f 393/423/337 394/424/338 412/443/356 411/442/355 
f 394/424/338 395/425/339 413/444/357 412/443/356 
f 395/425/339 396/426/340 414/445/358 413/444/357 
f 396/426/340 380/409/324 398/428/342 414/445/358 
f 397/427/341 415/446/359 416/447/360 398/428/342 
f 399/429/343 417/448/361 415/446/359 397/427/341 
f 400/430/344 418/449/362 417/448/361 399/429/343 
f 401/431/345 419/450/363 418/449/362 400/430/344 
f 402/432/346 420/451/364 419/452/363 401/433/345 
f 403/434/347 421/453/365 420/451/364 402/432/346 
f 404/435/348 422/454/366 421/453/365 403/434/347 
f 405/436/349 423/455/367 422/454/366 404/435/348 
f 406/437/350 424/456/368 423/455/367 405/436/349 
f 406/437/350 407/438/351 425/457/369 424/456/368 
f 407/438/351 408/439/352 426/458/370 425/457/369 
f 408/439/352 409/440/353 427/459/371 426/458/370 
f 409/440/353 410/441/354 428/460/372 427/459/371 
f 410/441/354 411/442/355 429/461/373 428/460/372 
f 411/442/355 412/443/356 430/462/374 429/461/373 
f 412/443/356 413/444/357 431/463/375 430/462/374 
f 413/444/357 414/445/358 432/464/376 431/463/375 
f 414/445/358 398/428/342 416/447/360 432/464/376 
f 415/446/359 433/465/377 434/466/378 416/447/360 
f 417/448/361 435/467/379 433/465/377 415/446/359 
f 418/449/362 436/468/380 435/467/379 417/448/361 
f 419/450/363 437/469/381 436/468/380 418/449/362 
f 420/451/364 438/470/382 437/471/381 419/452/363 
f 421/453/365 439/472/383 438/470/382 420/451/364 
f 422/454/366 440/473/384 439/472/383 421/453/365 
f 423/455/367 441/474/385 440/473/384 422/454/366 
f 424/456/368 442/475/386 441/474/385 423/455/367 
f 424/456/368 425/457/369 443/476/387 442/475/386 
f 425/457/369 426/458/370 444/477/388 443/476/387 
f 426/458/370 427/459/371 445/478/389 444/477/388 
f 427/459/371 428/460/372 446/479/390 445/478/389 
f 428/460/372 429/461/373 447/480/391 446/479/390 
f 429/461/373 430/462/374 448/481/392 447/480/391 
f 430/462/374 431/463/375 449/482/393 448/481/392 
f 431/463/375 432/464/376 450/483/394 449/482/393 
f 432/464/376 416/447/360 434/466/378 450/483/394 
s 1
f 442/484/386 443/485/387 449/486/393 450/483/394 
s 8
f 451/487/395 452/488/396 453/489/397 454/490/398 
f 455/491/399 451/487/395 454/490/398 456/492/400 
f 457/493/401 455/491/399 456/492/400 458/494/402 
f 459/495/403 457/493/401 458/494/402 460/496/404 
f 461/497/405 462/498/406 459/499/403 460/500/404 
f 463/501/407 464/502/408 462/498/406 461/497/405 
f 465/503/409 466/504/410 464/502/408 463/501/407 
f 467/505/411 468/506/412 466/504/410 465/503/409 
f 469/507/413 470/508/414 468/506/412 467/505/411 
f 471/509/415 472/510/416 470/508/414 469/507/413 
f 473/511/417 474/512/418 472/510/416 471/509/415 
f 475/513/419 476/514/420 474/512/418 473/511/417 
f 477/515/421 478/516/422 476/514/420 475/513/419 
f 479/517/423 478/516/422 477/515/421 480/518/424 
f 481/519/425 479/517/423 480/518/424 482/520/426 
f 483/521/427 481/519/425 482/520/426 484/522/428 
f 485/523/429 483/521/427 484/522/428 486/524/430 
f 452/488/396 485/523/429 486/524/430 453/489/397 
s 1
f 487/525/431 488/526/432 489/527/433 490/528/434 
s 8
f 491/529/435 492/530/436 493/531/437 494/532/438 
f 494/532/438 493/531/437 495/533/439 496/534/440 
f 496/534/440 495/533/439 452/488/396 451/487/395 
f 497/535/441 498/536/442 499/537/443 500/538/444 
f 500/538/444 499/537/443 454/490/398 453/489/397 
f 501/539/445 491/529/435 494/532/438 502/540/446 
f 502/540/446 494/532/438 496/534/440 503/541/447 
f 503/541/447 496/534/440 451/487/395 455/491/399 
f 498/536/442 504/542/448 505/543/449 499/537/443 
f 499/537/443 505/543/449 456/492/400 454/490/398 
f 506/544/450 501/539/445 502/540/446 507/545/451 
f 507/545/451 502/540/446 503/541/447 508/546/452 
f 508/546/452 503/541/447 455/491/399 457/493/401 
f 504/542/448 509/547/453 510/548/454 505/543/449 
f 505/543/449 510/548/454 458/494/402 456/492/400 
f 511/549/455 506/544/450 507/545/451 512/550/456 
f 512/550/456 507/545/451 508/546/452 513/551/457 
f 513/551/457 508/546/452 457/493/401 459/495/403 
f 509/547/453 514/552/458 515/553/459 510/548/454 
f 510/548/454 515/553/459 460/496/404 458/494/402 
f 516/554/460 517/555/461 511/556/455 512/557/456 
f 518/558/462 516/554/460 512/557/456 513/559/457 
f 462/498/406 518/558/462 513/559/457 459/499/403 
f 514/560/458 519/561/463 520/562/464 515/563/459 
f 515/563/459 520/562/464 461/497/405 460/500/404 
f 521/564/465 522/565/466 517/555/461 516/554/460 
f 523/566/467 521/564/465 516/554/460 518/558/462 
f 464/502/408 523/566/467 518/558/462 462/498/406 
f 519/561/463 524/567/468 525/568/469 520/562/464 
f 461/497/405 520/562/464 525/568/469 463/501/407 
f 526/569/470 527/570/471 522/565/466 521/564/465 
f 528/571/472 526/569/470 521/564/465 523/566/467 
f 466/504/410 528/571/472 523/566/467 464/502/408 
f 524/567/468 529/572/473 530/573/474 525/568/469 
f 463/501/407 525/568/469 530/573/474 465/503/409 
f 531/574/475 532/575/476 527/570/471 526/569/470 
f 533/576/477 531/574/475 526/569/470 528/571/472 
f 468/506/412 533/576/477 528/571/472 466/504/410 
f 529/572/473 534/577/478 535/578/479 530/573/474 
f 465/503/409 530/573/474 535/578/479 467/505/411 
f 536/579/480 487/580/431 532/575/476 531/574/475 
f 537/581/481 536/579/480 531/574/475 533/576/477 
f 470/508/414 537/581/481 533/576/477 468/506/412 
f 534/577/478 538/582/482 539/583/483 535/578/479 
f 467/505/411 535/578/479 539/583/483 469/507/413 
f 540/584/484 488/585/432 487/580/431 536/579/480 
f 541/586/485 540/584/484 536/579/480 537/581/481 
f 472/510/416 541/586/485 537/581/481 470/508/414 
f 538/582/482 542/587/486 543/588/487 539/583/483 
f 469/507/413 539/583/483 543/588/487 471/509/415 
f 544/589/488 545/590/489 488/585/432 540/584/484 
f 546/591/490 544/589/488 540/584/484 541/586/485 
f 474/512/418 546/591/490 541/586/485 472/510/416 
f 542/587/486 547/592/491 548/593/492 543/588/487 
f 471/509/415 543/588/487 548/593/492 473/511/417 
f 549/594/493 550/595/494 545/590/489 544/589/488 
f 551/596/495 549/594/493 544/589/488 546/591/490 
f 476/514/420 551/596/495 546/591/490 474/512/418 
f 547/592/491 552/597/496 553/598/497 548/593/492 
f 473/511/417 548/593/492 553/598/497 475/513/419 
f 554/599/498 555/600/499 550/595/494 549/594/493 
f 556/601/500 554/599/498 549/594/493 551/596/495 
f 478/516/422 556/601/500 551/596/495 476/514/420 
f 552/597/496 557/602/501 558/603/502 553/598/497 
f 475/513/419 553/598/497 558/603/502 477/515/421 
f 559/604/503 555/600/499 554/599/498 560/605/504 
f 560/605/504 554/599/498 556/601/500 561/606/505 
f 561/606/505 556/601/500 478/516/422 479/517/423 
f 557/602/501 562/607/506 563/608/507 558/603/502 
f 558/603/502 563/608/507 480/518/424 477/515/421 
f 564/609/508 559/604/503 560/605/504 565/610/509 
f 565/610/509 560/605/504 561/606/505 566/611/510 
f 566/611/510 561/606/505 479/517/423 481/519/425 
f 562/607/506 567/612/511 568/613/512 563/608/507 
f 563/608/507 568/613/512 482/520/426 480/518/424 
f 489/614/433 564/609/508 565/610/509 569/615/513 
f 569/615/513 565/610/509 566/611/510 570/616/514 
f 570/616/514 566/611/510 481/519/425 483/521/427 
f 567/612/511 571/617/515 572/618/516 568/613/512 
f 568/613/512 572/618/516 484/522/428 482/520/426 
f 490/528/434 489/614/433 569/615/513 573/619/517 
f 573/619/517 569/615/513 570/616/514 574/620/518 
f 574/620/518 570/616/514 483/521/427 485/523/429 
f 571/617/515 575/621/519 576/622/520 572/618/516 
f 572/618/516 576/622/520 486/524/430 484/522/428 
f 492/530/436 490/528/434 573/619/517 493/531/437 
f 493/531/437 573/619/517 574/620/518 495/533/439 
f 495/533/439 574/620/518 485/523/429 452/488/396 
f 575/621/519 497/535/441 500/538/444 576/622/520 
f 576/622/520 500/538/444 453/489/397 486/524/430 
f 577/623/521 578/624/522 579/625/523 580/626/524 
f 578/624/522 581/627/525 582/628/526 579/625/523 
f 581/627/525 583/629/527 584/630/528 582/628/526 
f 583/629/527 585/631/529 586/632/530 584/630/528 
f 585/633/529 587/634/531 588/635/532 586/636/530 
f 587/634/531 589/637/533 590/638/534 588/635/532 
f 589/637/533 591/639/535 592/640/536 590/638/534 
f 591/639/535 593/641/537 594/642/538 592/640/536 
f 593/641/537 595/643/539 596/644/540 594/642/538 
f 597/645/541 598/646/542 596/644/540 595/643/539 
f 599/647/543 600/648/544 598/646/542 597/645/541 
f 601/649/545 602/650/546 600/648/544 599/647/543 
f 603/651/547 604/652/548 602/650/546 601/649/545 
f 605/653/549 606/654/550 604/652/548 603/651/547 
f 607/655/551 608/656/552 606/654/550 605/653/549 
f 609/657/553 610/658/554 608/656/552 607/655/551 
f 611/659/555 612/660/556 610/658/554 609/657/553 
f 577/623/521 580/626/524 612/660/556 611/659/555 
f 580/626/524 579/625/523 613/661/557 614/662/558 
f 579/625/523 582/628/526 615/663/559 613/661/557 
f 582/628/526 584/630/528 616/664/560 615/663/559 
f 584/630/528 586/632/530 617/665/561 616/664/560 
f 586/636/530 588/635/532 618/666/562 617/667/561 
f 588/635/532 590/638/534 619/668/563 618/666/562 
f 590/638/534 592/640/536 620/669/564 619/668/563 
f 592/640/536 594/642/538 621/670/565 620/669/564 
f 594/642/538 596/644/540 622/671/566 621/670/565 
f 598/646/542 623/672/567 622/671/566 596/644/540 
f 600/648/544 624/673/568 623/672/567 598/646/542 
f 602/650/546 625/674/569 624/673/568 600/648/544 
f 604/652/548 626/675/570 625/674/569 602/650/546 
f 606/654/550 627/676/571 626/675/570 604/652/548 
f 608/656/552 628/677/572 627/676/571 606/654/550 
f 610/658/554 629/678/573 628/677/572 608/656/552 
f 612/660/556 630/679/574 629/678/573 610/658/554 
f 580/626/524 614/662/558 630/679/574 612/660/556 
f 614/662/558 613/661/557 631/680/575 632/681/576 
f 613/661/557 615/663/559 633/682/577 631/680/575 
f 615/663/559 616/664/560 634/683/578 633/682/577 
f 616/664/560 617/665/561 635/684/579 634/683/578 
f 617/667/561 618/666/562 636/685/580 635/686/579 
f 618/666/562 619/668/563 637/687/581 636/685/580 
f 619/668/563 620/669/564 638/688/582 637/687/581 
f 620/669/564 621/670/565 639/689/583 638/688/582 
f 621/670/565 622/671/566 640/690/584 639/689/583 
f 623/672/567 641/691/585 640/690/584 622/671/566 
f 624/673/568 642/692/586 641/691/585 623/672/567 
f 625/674/569 643/693/587 642/692/586 624/673/568 
f 626/675/570 644/694/588 643/693/587 625/674/569 
f 627/676/571 645/695/589 644/694/588 626/675/570 
f 628/677/572 646/696/590 645/695/589 627/676/571 
f 629/678/573 647/697/591 646/696/590 628/677/572 
f 630/679/574 648/698/592 647/697/591 629/678/573 
f 614/662/558 632/681/576 648/698/592 630/679/574 
f 632/681/576 631/680/575 649/699/593 650/700/594 
f 631/680/575 633/682/577 651/701/595 649/699/593 
f 633/682/577 634/683/578 652/702/596 651/701/595 
f 634/683/578 635/684/579 653/703/597 652/702/596 
f 635/686/579 636/685/580 654/704/598 653/705/597 
f 636/685/580 637/687/581 655/706/599 654/704/598 
f 637/687/581 638/688/582 656/707/600 655/706/599 
f 638/688/582 639/689/583 657/708/601 656/707/600 
f 639/689/583 640/690/584 658/709/602 657/708/601 
f 641/691/585 659/710/603 658/709/602 640/690/584 
f 642/692/586 660/711/604 659/710/603 641/691/585 
f 643/693/587 661/712/605 660/711/604 642/692/586 
f 644/694/588 662/713/606 661/712/605 643/693/587 
f 645/695/589 663/714/607 662/713/606 644/694/588 
f 646/696/590 664/715/608 663/714/607 645/695/589 
f 647/697/591 665/716/609 664/715/608 646/696/590 
f 648/698/592 666/717/610 665/716/609 647/697/591 
f 632/681/576 650/700/594 666/717/610 648/698/592 
f 650/700/594 649/699/593 667/718/611 668/719/612 
f 649/699/593 651/701/595 669/720/613 667/718/611 
f 651/701/595 652/702/596 670/721/614 669/720/613 
f 652/702/596 653/703/597 671/722/615 670/721/614 
f 653/705/597 654/704/598 672/723/616 671/724/615 
f 654/704/598 655/706/599 673/725/617 672/723/616 
f 655/706/599 656/707/600 674/726/618 673/725/617 
f 656/707/600 657/708/601 675/727/619 674/726/618 
f 657/708/601 658/709/602 676/728/620 675/727/619 
f 659/710/603 677/729/621 676/728/620 658/709/602 
f 660/711/604 678/730/622 677/729/621 659/710/603 
f 661/712/605 679/731/623 678/730/622 660/711/604 
f 662/713/606 680/732/624 679/731/623 661/712/605 
f 663/714/607 681/733/625 680/732/624 662/713/606 
f 664/715/608 682/734/626 681/733/625 663/714/607 
f 665/716/609 683/735/627 682/734/626 664/715/608 
f 666/717/610 684/736/628 683/735/627 665/716/609 
f 650/700/594 668/719/612 684/736/628 666/717/610 
s 1
f 672/737/616 673/738/617 683/739/627 684/736/628 
s 4
f 685/740/629 686/741/630 687/742/631 688/743/632 
s 8
f 689/744/633 685/745/629 688/746/632 690/747/634 
s 16
f 691/748/635 686/741/630 685/749/629 689/744/633 
s 32
f 692/750/636 687/742/631 686/741/630 691/748/635 
s 64
f 690/747/634 688/751/632 687/742/631 692/750/636 
s 2
f 693/752/637 694/753/630 695/754/629 696/755/638 
s 4
f 697/756/632 698/757/631 699/758/639 700/759/640 
s 8
f 695/760/629 697/761/632 700/759/640 696/755/638 
s 16
f 694/762/630 698/763/631 697/761/632 695/760/629 
s 32
f 693/752/637 699/758/639 698/764/631 694/765/630 
s 64
f 696/755/638 700/759/640 699/758/639 693/752/637 
s 1
f 102/117/102 104/766/104 106/118/106 
f 75/80/75 98/767/98 100/116/100 108/115/108 
f 74/79/74 96/768/96 98/767/98 75/80/75 
f 78/83/78 94/769/94 96/768/96 74/79/74 
f 80/85/80 92/770/92 94/769/94 78/83/78 
f 82/87/82 90/771/90 92/770/92 80/85/80 
f 84/772/84 88/773/88 90/771/90 82/87/82 
f 84/772/84 86/774/86 88/773/88 
f 667/718/611 669/720/613 670/721/614 
f 667/718/611 670/721/614 671/722/615 668/719/612 
f 668/719/612 671/722/615 672/737/616 684/736/628 
f 674/775/618 682/776/626 683/739/627 673/738/617 
f 675/777/619 681/778/625 682/776/626 674/775/618 
f 676/779/620 680/780/624 681/778/625 675/777/619 
f 677/781/621 679/782/623 680/780/624 676/779/620 
f 677/781/621 678/783/622 679/782/623 
f 550/784/494 555/785/499 559/786/503 
f 550/784/494 559/786/503 564/787/508 545/788/489 
f 545/788/489 564/787/508 489/527/433 488/526/432 
f 492/530/436 532/789/476 487/525/431 490/528/434 
f 491/529/435 527/790/471 532/789/476 492/530/436 
f 501/539/445 522/791/466 527/790/471 491/529/435 
f 506/544/450 517/792/461 522/791/466 501/539/445 
f 506/544/450 511/549/455 517/792/461 
f 445/793/389 446/794/390 447/795/391 
f 445/793/389 447/795/391 448/796/392 444/797/388 
f 444/797/388 448/796/392 449/486/393 443/485/387 
f 434/466/378 441/798/385 442/484/386 450/483/394 
f 433/465/377 440/799/384 441/798/385 434/466/378 
f 435/467/379 439/800/383 440/799/384 433/465/377 
f 436/468/380 438/801/382 439/800/383 435/467/379 
f 436/468/380 437/469/381 438/801/382 
f 306/327/108 273/292/75 272/291/74 
f 278/297/80 302/802/104 304/328/277 276/295/78 
f 280/299/82 300/803/102 302/802/104 278/297/80 
f 282/804/84 298/805/100 300/803/102 280/299/82 
f 284/806/86 296/807/98 298/805/100 282/804/84 
f 286/808/88 294/809/275 296/807/98 284/806/86 
f 288/810/271 292/811/274 294/809/275 286/808/88 
f 288/810/271 290/812/273 292/811/274 
f 40/42/40 59/62/59 37/39/37 
f 60/63/60 72/813/72 39/41/39 38/40/38 
f 61/64/61 71/814/71 72/813/72 60/63/60 
f 62/815/62 70/816/70 71/814/71 61/64/61 
f 63/817/63 69/818/69 70/816/70 62/815/62 
f 64/819/64 68/820/68 69/818/69 63/817/63 
f 65/821/65 67/822/67 68/820/68 64/819/64 
f 65/821/65 66/823/66 67/822/67 
f 314/336/80 316/338/82 318/824/281 
f 314/336/80 318/824/281 320/825/283 312/334/78 
f 312/334/78 320/825/283 322/826/284 308/330/278 
f 308/330/278 322/826/284 324/827/271 309/331/279 
f 309/331/279 324/827/271 326/367/273 342/366/286 
f 330/828/96 338/829/104 340/369/106 328/368/274 
f 332/830/98 336/831/102 338/829/104 330/828/96 
f 332/830/98 334/832/100 336/831/102 
# 600 polygons - 14 triangles

